simulation/qsim/pfs_ula_4bits.msim.vcd
$comment
	File created using the following command:
		vcd file pfs_ula_4bits.msim.vcd -direction
$end
$date
	Fri Apr 17 08:35:06 2026
$end
$version
	ModelSim Version 10.1d
$end
$timescale
	1ps
$end
$scope module pfs_ula_4bits_vlg_vec_tst $end
$var reg 3 ! sel [2:0] $end
$var reg 4 " x [3:0] $end
$var reg 4 # y [3:0] $end
$var wire 1 $ cout $end
$var wire 1 % debug $end
$var wire 1 & s [3] $end
$var wire 1 ' s [2] $end
$var wire 1 ( s [1] $end
$var wire 1 ) s [0] $end
$var wire 1 * sampler $end
$scope module i1 $end
$var wire 1 + gnd $end
$var wire 1 , vcc $end
$var wire 1 - unknown $end
$var tri1 1 . devclrn $end
$var tri1 1 / devpor $end
$var tri1 1 0 devoe $end
$var wire 1 1 cout~output_o $end
$var wire 1 2 debug~output_o $end
$var wire 1 3 s[3]~output_o $end
$var wire 1 4 s[2]~output_o $end
$var wire 1 5 s[1]~output_o $end
$var wire 1 6 s[0]~output_o $end
$var wire 1 7 sel[1]~input_o $end
$var wire 1 8 sel[2]~input_o $end
$var wire 1 9 x[2]~input_o $end
$var wire 1 : sel[0]~input_o $end
$var wire 1 ; y[2]~input_o $end
$var wire 1 < inst7|inst8~1_combout $end
$var wire 1 = y[0]~input_o $end
$var wire 1 > x[0]~input_o $end
$var wire 1 ? inst4|inst8~0_combout $end
$var wire 1 @ inst|inst|inst3|inst~0_combout $end
$var wire 1 A inst4|inst8~1_combout $end
$var wire 1 B y[1]~input_o $end
$var wire 1 C x[1]~input_o $end
$var wire 1 D inst3|inst8~3_combout $end
$var wire 1 E inst3|inst8~0_combout $end
$var wire 1 F inst3|inst7|inst2|inst3~0_combout $end
$var wire 1 G inst3|inst8~1_combout $end
$var wire 1 H inst3|inst8~2_combout $end
$var wire 1 I inst3|inst8~4_combout $end
$var wire 1 J inst7|inst8~0_combout $end
$var wire 1 K inst7|inst8~2_combout $end
$var wire 1 L y[3]~input_o $end
$var wire 1 M inst|inst8~0_combout $end
$var wire 1 N x[3]~input_o $end
$var wire 1 O inst|inst8~1_combout $end
$var wire 1 P inst|inst8~2_combout $end
$var wire 1 Q inst4|inst8~2_combout $end
$var wire 1 R inst|inst7|inst1~combout $end
$var wire 1 S inst|inst|inst3|inst~2_combout $end
$var wire 1 T inst|inst|inst3|inst~1_combout $end
$var wire 1 U inst|inst|inst3|inst~3_combout $end
$var wire 1 V inst|inst|inst3|inst~4_combout $end
$var wire 1 W inst|inst|inst3|inst~5_combout $end
$var wire 1 X inst7|inst|inst3|inst~0_combout $end
$var wire 1 Y inst7|inst|inst3|inst~1_combout $end
$var wire 1 Z inst7|inst|inst3|inst~2_combout $end
$var wire 1 [ inst7|inst7|inst1~combout $end
$var wire 1 \ inst7|inst|inst3|inst~3_combout $end
$var wire 1 ] inst3|inst7|inst1~combout $end
$var wire 1 ^ inst3|inst|inst3|inst~1_combout $end
$var wire 1 _ inst3|inst|inst3|inst~2_combout $end
$var wire 1 ` inst3|inst|inst3|inst~3_combout $end
$var wire 1 a inst3|inst|inst3|inst~0_combout $end
$var wire 1 b inst3|inst|inst3|inst~4_combout $end
$var wire 1 c inst4|inst|inst3|inst~0_combout $end
$var wire 1 d inst4|inst|inst3|inst~1_combout $end
$upscope $end
$upscope $end
$enddefinitions $end
#0
$dumpvars
b110 !
b0 "
b0 #
1$
1%
0)
0(
0'
0&
x*
0+
1,
x-
1.
1/
10
11
12
03
04
05
06
17
18
09
0:
0;
1<
0=
0>
0?
1@
1A
0B
0C
1D
0E
0F
0G
0H
1I
0J
1K
0L
0M
0N
0O
1P
1Q
1R
0S
0T
0U
0V
0W
0X
0Y
0Z
1[
0\
1]
0^
0_
0`
0a
0b
1c
0d
$end
#20000
b1 "
1>
0*
0A
1d
1^
0]
0I
16
1)
0Q
1_
0[
1Z
0K
02
0%
1V
0R
1b
1\
0P
15
14
01
1(
1'
0$
1W
13
1&
#40000
b11 "
b10 "
0>
1C
1*
1A
0^
1]
0D
0d
1^
0]
1F
0_
06
0)
1Q
1_
12
1%
0b
05
0(
1b
15
1(
#60000
b11 "
1>
0*
0A
1d
0^
1]
0F
16
1)
0Q
0_
02
0%
0b
05
0(
#80000
b111 "
b101 "
b100 "
0>
0C
19
1*
1A
1^
0]
1D
1[
0Z
0<
0d
0^
1]
1I
1_
06
0)
1Q
0\
0_
0[
1Z
12
04
1%
0'
1b
15
1(
0b
1\
05
14
0(
1'
#100000
b101 "
1>
0*
0A
1d
1^
0]
0I
16
1)
0Q
1_
1[
0Z
02
0%
1b
0\
15
04
1(
0'
#120000
b111 "
b110 "
0>
1C
1*
1A
0^
1]
0D
0d
1^
0]
1F
0_
06
0)
1Q
1_
12
1%
0b
05
0(
1b
15
1(
#140000
b111 "
1>
0*
0A
1d
0^
1]
0F
16
1)
0Q
0_
02
0%
0b
05
0(
#160000
b1111 "
b1011 "
b1001 "
b1000 "
0>
0C
09
1N
1*
1A
1^
0]
1D
0[
1Z
1<
0V
1R
0d
0^
1]
1I
1_
06
0)
1Q
1\
0W
0_
1[
0Z
1K
12
14
03
1%
1'
0&
1b
1V
0R
1O
15
1(
0b
0\
1P
05
04
11
0(
0'
1$
1W
0P
13
01
1&
0$
#180000
b1001 "
1>
0*
0A
1d
1^
0]
0I
16
1)
0Q
1_
0[
1Z
0K
02
0%
0V
1R
0O
1b
1\
15
14
1(
1'
0W
03
0&
#200000
b1 #
b1011 "
b1010 "
0>
1C
1=
1*
1A
0^
1]
0D
0c
1^
0]
1F
0_
1Q
0d
1_
12
06
1%
0)
0b
05
0(
1b
15
1(
#220000
b1011 "
1>
0*
0A
1?
1d
0^
1]
0F
16
1)
0Q
0_
02
0%
0b
05
0(
#240000
b1111 "
b1101 "
b1100 "
0>
0C
19
1*
1A
0?
1^
0]
1D
1[
0Z
0<
0d
0^
1]
1I
1_
06
0)
1Q
0\
0_
0[
1Z
12
04
1%
0'
1b
15
1(
0b
1\
05
14
0(
1'
#260000
b1101 "
1>
0*
0A
1?
1d
1^
0]
0I
16
1)
0Q
1_
1[
0Z
02
0%
1b
0\
15
04
1(
0'
#280000
b1111 "
b1110 "
0>
1C
1*
1A
0?
0^
1]
0D
0d
1^
0]
1F
0_
06
0)
1Q
1_
12
1%
0b
05
0(
1b
15
1(
#300000
b1111 "
1>
0*
0A
1?
1d
0^
1]
0F
16
1)
0Q
0_
02
0%
0b
05
0(
#320000
b111 "
b11 "
b1 "
b0 "
0>
0C
09
0N
1*
1A
0?
1^
0]
1D
0[
1Z
1<
1V
0R
0d
0^
1]
1I
1_
06
0)
1Q
1\
1W
0_
1[
0Z
1K
12
14
13
1%
1'
1&
1b
0V
1R
15
1(
0b
0\
1P
05
04
11
0(
0'
1$
0W
03
0&
#340000
b1 "
1>
0*
0A
1?
1d
1^
0]
0I
16
1)
0Q
1_
0[
1Z
0K
02
0%
1V
0R
1b
1\
0P
15
14
01
1(
1'
0$
1W
13
1&
#360000
b11 "
b10 "
0>
1C
1*
1A
0?
0^
1]
0D
0d
1^
0]
1F
0_
06
0)
1Q
1_
12
1%
0b
05
0(
1b
15
1(
#380000
b11 "
1>
0*
0A
1?
1d
0^
1]
0F
16
1)
0Q
0_
02
0%
0b
05
0(
#400000
b11 #
b10 #
b111 "
b101 "
b100 "
0>
0C
19
0=
1B
1*
1A
0?
1^
1D
1[
0Z
0<
1c
0d
0^
0]
1I
1F
1_
06
0)
1Q
0\
0_
0[
1Z
12
04
1%
0'
1b
15
1(
0b
1\
05
14
0(
1'
#420000
b101 "
1>
0*
0A
1d
1^
1]
0I
0F
16
1)
0Q
1_
1[
0Z
02
0%
1b
0\
15
04
1(
0'
#440000
b111 "
b110 "
0>
1C
1*
1A
1`
0^
0]
1F
0D
0d
1^
1]
0_
06
0)
1Q
1_
12
1%
0b
05
0(
1b
15
1(
#460000
b111 "
1>
0*
0A
1d
0^
0]
16
1)
0Q
0_
02
0%
0b
05
0(
#480000
b1111 "
b1011 "
b1001 "
b1000 "
0>
0C
09
1N
1*
1A
0`
1^
1]
0F
1D
0[
1Z
1<
0V
1R
0d
0^
0]
1I
1F
1_
06
0)
1Q
1\
0W
0_
1[
0Z
1K
12
14
03
1%
1'
0&
1b
1V
0R
1O
15
1(
0b
0\
1P
05
04
11
0(
0'
1$
1W
0P
13
01
1&
0$
#500000
b1001 "
1>
0*
0A
1d
1^
1]
0I
0F
16
1)
0Q
1_
0[
1Z
0K
02
0%
0V
1R
0O
1b
1\
15
14
1(
1'
0W
03
0&
#520000
b1011 "
b1010 "
0>
1C
1*
1A
1`
0^
0]
1F
0D
0d
1^
1]
0_
06
0)
1Q
1_
12
1%
0b
05
0(
1b
15
1(
#540000
b1011 "
1>
0*
0A
1d
0^
0]
16
1)
0Q
0_
02
0%
0b
05
0(
#560000
b1111 "
b1101 "
b1100 "
0>
0C
19
1*
1A
0`
1^
1]
0F
1D
1[
0Z
0<
0d
0^
0]
1I
1F
1_
06
0)
1Q
0\
0_
0[
1Z
12
04
1%
0'
1b
15
1(
0b
1\
05
14
0(
1'
#580000
b1101 "
1>
0*
0A
1d
1^
1]
0I
0F
16
1)
0Q
1_
1[
0Z
02
0%
1b
0\
15
04
1(
0'
#600000
b11 #
b1111 "
b1110 "
0>
1C
1=
1*
1A
1`
0^
0]
1F
0D
0c
1^
1]
0_
1Q
0d
1_
12
06
1%
0)
0b
05
0(
1b
15
1(
#620000
b1111 "
1>
0*
0A
1?
1d
0^
0]
16
1)
0Q
0_
02
0%
0b
05
0(
#640000
b111 "
b11 "
b1 "
b0 "
0>
0C
09
0N
1*
1A
0?
0`
1^
1]
0F
1D
0[
1Z
1<
1V
0R
0d
0^
0]
1I
1F
1_
06
0)
1Q
1\
1W
0_
1[
0Z
1K
12
14
13
1%
1'
1&
1b
0V
1R
15
1(
0b
0\
1P
05
04
11
0(
0'
1$
0W
03
0&
#660000
b1 "
1>
0*
0A
1?
1d
1^
1]
0I
0F
16
1)
0Q
1_
0[
1Z
0K
02
0%
1V
0R
1b
1\
0P
15
14
01
1(
1'
0$
1W
13
1&
#680000
b11 "
b10 "
0>
1C
1*
1A
0?
1`
0^
0]
1F
0D
0d
1^
1]
0_
06
0)
1Q
1_
12
1%
0b
05
0(
1b
15
1(
#700000
b11 "
1>
0*
0A
1?
1d
0^
0]
16
1)
0Q
0_
02
0%
0b
05
0(
#720000
b111 "
b101 "
b100 "
0>
0C
19
1*
1A
0?
0`
1^
1]
0F
1D
1[
0Z
0<
0d
0^
0]
1I
1F
1_
06
0)
1Q
0\
0_
0[
1Z
12
04
1%
0'
1b
15
1(
0b
1\
05
14
0(
1'
#740000
b101 "
1>
0*
0A
1?
1d
1^
1]
0I
0F
16
1)
0Q
1_
1[
0Z
02
0%
1b
0\
15
04
1(
0'
#760000
b111 "
b110 "
0>
1C
1*
1A
0?
1`
0^
0]
1F
0D
0d
1^
1]
0_
06
0)
1Q
1_
12
1%
0b
05
0(
1b
15
1(
#780000
b111 "
1>
0*
0A
1?
1d
0^
0]
16
1)
0Q
0_
02
0%
0b
05
0(
#800000
b111 #
b101 #
b100 #
b1111 "
b1011 "
b1001 "
b1000 "
0>
0C
09
1N
0=
0B
1;
1*
1A
0?
0`
1^
0F
1D
1Z
1<
0V
1R
1c
0d
0^
1]
1I
1_
06
0)
1Q
1\
0W
0_
0[
0Z
1K
12
14
03
1%
1'
0&
1b
1V
0R
1O
15
1(
0b
0\
1P
05
04
11
0(
0'
1$
1W
0P
13
01
1&
0$
#820000
b1001 "
1>
0*
0A
1d
1^
0]
0I
16
1)
0Q
1_
1[
1Z
0K
02
0%
0V
1R
0O
1b
1\
15
14
1(
1'
0W
03
0&
#840000
b1011 "
b1010 "
0>
1C
1*
1A
0^
1]
0D
0d
1^
0]
1F
0_
06
0)
1Q
1_
12
1%
0b
05
0(
1b
15
1(
#860000
b1011 "
1>
0*
0A
1d
0^
1]
0F
16
1)
0Q
0_
02
0%
0b
05
0(
#880000
b1111 "
b1101 "
b1100 "
0>
0C
19
1*
1A
1^
0]
1D
0[
0Z
1X
0<
0d
0^
1]
1I
1_
06
0)
1Q
0\
0_
1[
1Z
12
04
1%
0'
1b
15
1(
0b
1\
05
14
0(
1'
#900000
b1101 "
1>
0*
0A
1d
1^
0]
0I
16
1)
0Q
1_
0[
0Z
02
0%
1b
0\
15
04
1(
0'
#920000
b1111 "
b1110 "
0>
1C
1*
1A
0^
1]
0D
0d
1^
0]
1F
0_
06
0)
1Q
1_
12
1%
0b
05
0(
1b
15
1(
#940000
b1111 "
1>
0*
0A
1d
0^
1]
0F
16
1)
0Q
0_
02
0%
0b
05
0(
#960000
b111 "
b11 "
b1 "
b0 "
0>
0C
09
0N
1*
1A
1^
0]
1D
1[
1Z
0X
1<
1V
0R
0d
0^
1]
1I
1_
06
0)
1Q
1\
1W
0_
0[
0Z
1K
12
14
13
1%
1'
1&
1b
0V
1R
15
1(
0b
0\
1P
05
04
11
0(
0'
1$
0W
03
0&
#980000
b1 "
1>
0*
0A
1d
1^
0]
0I
16
1)
0Q
1_
1[
1Z
0K
02
0%
1V
0R
1b
1\
0P
15
14
01
1(
1'
0$
1W
13
1&
