simulation/qsim/pfs_mux2x1.msim.vcd
$comment
	File created using the following command:
		vcd file pfs_mux2x1.msim.vcd -direction
$end
$date
	Sat Mar 21 17:50:43 2026
$end
$version
	ModelSim Version 10.1d
$end
$timescale
	1ps
$end
$scope module pfs_mux2x1_vlg_vec_tst $end
$var reg 1 ! e0 $end
$var reg 1 " e1 $end
$var reg 1 # sel $end
$var wire 1 $ out $end
$var wire 1 % sampler $end
$scope module i1 $end
$var wire 1 & gnd $end
$var wire 1 ' vcc $end
$var wire 1 ( unknown $end
$var tri1 1 ) devclrn $end
$var tri1 1 * devpor $end
$var tri1 1 + devoe $end
$var wire 1 , out~output_o $end
$var wire 1 - e1~input_o $end
$var wire 1 . sel~input_o $end
$var wire 1 / e0~input_o $end
$var wire 1 0 inst~0_combout $end
$upscope $end
$upscope $end
$enddefinitions $end
#0
$dumpvars
0!
0"
0#
0$
x%
0&
1'
x(
1)
1*
1+
0,
0-
0.
0/
00
$end
#10000
1!
1/
0%
10
1,
1$
#20000
0!
0/
1%
00
0,
0$
#30000
1"
1!
1-
1/
0%
10
1,
1$
#40000
0!
0/
1%
00
0,
0$
#50000
1!
1/
0%
10
1,
1$
#60000
0"
0!
0-
0/
1%
00
0,
0$
#70000
1!
1/
0%
10
1,
1$
#80000
0!
0/
1%
00
0,
0$
#90000
1"
1!
1-
1/
0%
10
1,
1$
#100000
0!
0/
1%
00
0,
0$
#110000
1!
1/
0%
10
1,
1$
#120000
0"
0!
0-
0/
1%
00
0,
0$
#130000
1!
1/
0%
10
1,
1$
#140000
0!
0/
1%
00
0,
0$
#150000
1"
1!
1-
1/
0%
10
1,
1$
#160000
0!
0/
1%
00
0,
0$
#170000
1!
1/
0%
10
1,
1$
#180000
0"
0!
0-
0/
1%
00
0,
0$
#190000
1!
1/
0%
10
1,
1$
#200000
1#
0!
1.
0/
1%
00
0,
0$
#210000
1"
1!
1-
1/
0%
10
1,
1$
#220000
0!
0/
1%
#230000
1!
1/
0%
#240000
0"
0!
0-
0/
1%
00
0,
0$
#250000
1!
1/
0%
#260000
0!
0/
1%
#270000
1"
1!
1-
1/
0%
10
1,
1$
#280000
0!
0/
1%
#290000
1!
1/
0%
#300000
0"
0!
0-
0/
1%
00
0,
0$
#310000
1!
1/
0%
#320000
0!
0/
1%
#330000
1"
1!
1-
1/
0%
10
1,
1$
#340000
0!
0/
1%
#350000
1!
1/
0%
#360000
0"
0!
0-
0/
1%
00
0,
0$
#370000
1!
1/
0%
#380000
0!
0/
1%
#390000
1"
1!
1-
1/
0%
10
1,
1$
#400000
0#
0!
0.
0/
1%
00
0,
0$
#410000
1!
1/
0%
10
1,
1$
#420000
0"
0!
0-
0/
1%
00
0,
0$
#430000
1!
1/
0%
10
1,
1$
#440000
0!
0/
1%
00
0,
0$
#450000
1"
1!
1-
1/
0%
10
1,
1$
#460000
0!
0/
1%
00
0,
0$
#470000
1!
1/
0%
10
1,
1$
#480000
0"
0!
0-
0/
1%
00
0,
0$
#490000
1!
1/
0%
10
1,
1$
#500000
0!
0/
1%
00
0,
0$
#510000
1"
1!
1-
1/
0%
10
1,
1$
#520000
0!
0/
1%
00
0,
0$
#530000
1!
1/
0%
10
1,
1$
#540000
0"
0!
0-
0/
1%
00
0,
0$
#550000
1!
1/
0%
10
1,
1$
#560000
0!
0/
1%
00
0,
0$
#570000
1"
1!
1-
1/
0%
10
1,
1$
#580000
0!
0/
1%
00
0,
0$
#590000
1!
1/
0%
10
1,
1$
#600000
1#
0"
0!
1.
0-
0/
1%
00
0,
0$
#610000
1!
1/
0%
#620000
0!
0/
1%
#630000
1"
1!
1-
1/
0%
10
1,
1$
#640000
0!
0/
1%
#650000
1!
1/
0%
#660000
0"
0!
0-
0/
1%
00
0,
0$
#670000
1!
1/
0%
#680000
0!
0/
1%
#690000
1"
1!
1-
1/
0%
10
1,
1$
#700000
0!
0/
1%
#710000
1!
1/
0%
#720000
0"
0!
0-
0/
1%
00
0,
0$
#730000
1!
1/
0%
#740000
0!
0/
1%
#750000
1"
1!
1-
1/
0%
10
1,
1$
#760000
0!
0/
1%
#770000
1!
1/
0%
#780000
0"
0!
0-
0/
1%
00
0,
0$
#790000
1!
1/
0%
#800000
0#
0!
0.
0/
1%
#810000
1"
1!
1-
1/
0%
10
1,
1$
#820000
0!
0/
1%
00
0,
0$
#830000
1!
1/
0%
10
1,
1$
#840000
0"
0!
0-
0/
1%
00
0,
0$
#850000
1!
1/
0%
10
1,
1$
#860000
0!
0/
1%
00
0,
0$
#870000
1"
1!
1-
1/
0%
10
1,
1$
#880000
0!
0/
1%
00
0,
0$
#890000
1!
1/
0%
10
1,
1$
#900000
0"
0!
0-
0/
1%
00
0,
0$
#910000
1!
1/
0%
10
1,
1$
#920000
0!
0/
1%
00
0,
0$
#930000
1"
1!
1-
1/
0%
10
1,
1$
#940000
0!
0/
1%
00
0,
0$
#950000
1!
1/
0%
10
1,
1$
#960000
0"
0!
0-
0/
1%
00
0,
0$
#970000
1!
1/
0%
10
1,
1$
#980000
0!
0/
1%
00
0,
0$
#990000
1"
1!
1-
1/
0%
10
1,
1$
