simulation/qsim/pfs_ula_4bits.msim.vcd
$comment
	File created using the following command:
		vcd file pfs_ula_4bits.msim.vcd -direction
$end
$date
	Thu Apr 16 22:54:39 2026
$end
$version
	ModelSim Version 10.1d
$end
$timescale
	1ps
$end
$scope module pfs_ula_4bits_vlg_vec_tst $end
$var reg 3 ! sel [2:0] $end
$var reg 4 " x [3:0] $end
$var reg 4 # y [3:0] $end
$var wire 1 $ cout $end
$var wire 1 % debug $end
$var wire 1 & s [3] $end
$var wire 1 ' s [2] $end
$var wire 1 ( s [1] $end
$var wire 1 ) s [0] $end
$var wire 1 * sampler $end
$scope module i1 $end
$var wire 1 + gnd $end
$var wire 1 , vcc $end
$var wire 1 - unknown $end
$var tri1 1 . devclrn $end
$var tri1 1 / devpor $end
$var tri1 1 0 devoe $end
$var wire 1 1 cout~output_o $end
$var wire 1 2 debug~output_o $end
$var wire 1 3 s[3]~output_o $end
$var wire 1 4 s[2]~output_o $end
$var wire 1 5 s[1]~output_o $end
$var wire 1 6 s[0]~output_o $end
$var wire 1 7 sel[2]~input_o $end
$var wire 1 8 y[1]~input_o $end
$var wire 1 9 sel[1]~input_o $end
$var wire 1 : sel[0]~input_o $end
$var wire 1 ; inst3|inst8~0_combout $end
$var wire 1 < x[0]~input_o $end
$var wire 1 = inst4|inst8~0_combout $end
$var wire 1 > x[1]~input_o $end
$var wire 1 ? y[0]~input_o $end
$var wire 1 @ inst4|inst8~1_combout $end
$var wire 1 A inst3|inst8~1_combout $end
$var wire 1 B inst3|inst8~2_combout $end
$var wire 1 C x[2]~input_o $end
$var wire 1 D y[2]~input_o $end
$var wire 1 E inst|inst|inst3|inst~0_combout $end
$var wire 1 F inst7|inst8~0_combout $end
$var wire 1 G inst7|inst8~1_combout $end
$var wire 1 H inst7|inst8~2_combout $end
$var wire 1 I y[3]~input_o $end
$var wire 1 J inst|inst8~0_combout $end
$var wire 1 K x[3]~input_o $end
$var wire 1 L inst|inst8~1_combout $end
$var wire 1 M inst|inst8~2_combout $end
$var wire 1 N inst14~0_combout $end
$var wire 1 O inst|inst|inst3|inst~4_combout $end
$var wire 1 P inst|inst|inst3|inst~1_combout $end
$var wire 1 Q inst|inst|inst3|inst~2_combout $end
$var wire 1 R inst|inst|inst3|inst~3_combout $end
$var wire 1 S inst|inst|inst3|inst~5_combout $end
$var wire 1 T inst|inst7|inst1~combout $end
$var wire 1 U inst|inst|inst3|inst~6_combout $end
$var wire 1 V inst7|inst|inst3|inst~0_combout $end
$var wire 1 W inst7|inst|inst3|inst~1_combout $end
$var wire 1 X inst7|inst|inst3|inst~2_combout $end
$var wire 1 Y inst7|inst7|inst1~combout $end
$var wire 1 Z inst7|inst|inst3|inst~3_combout $end
$var wire 1 [ inst3|inst9|inst1~0_combout $end
$var wire 1 \ inst3|inst|inst3|inst~1_combout $end
$var wire 1 ] inst3|inst|inst3|inst~2_combout $end
$var wire 1 ^ inst3|inst|inst3|inst~0_combout $end
$var wire 1 _ inst3|inst|inst3|inst~3_combout $end
$var wire 1 ` inst4|inst|inst3|inst~0_combout $end
$var wire 1 a inst4|inst|inst3|inst~1_combout $end
$upscope $end
$upscope $end
$enddefinitions $end
#0
$dumpvars
b0 !
b0 "
b0 #
0$
0%
0)
0(
0'
0&
x*
0+
1,
x-
1.
1/
10
01
02
03
04
05
06
07
08
09
0:
0;
0<
0=
0>
0?
0@
0A
0B
0C
0D
0E
0F
0G
0H
0I
0J
0K
0L
0M
0N
0O
0P
0Q
0R
0S
0T
0U
0V
0W
0X
0Y
0Z
0[
0\
0]
0^
0_
0`
0a
$end
#50000
b1 !
1:
0*
1`
1\
1V
1Q
1J
1G
1@
1;
1]
1W
1R
1A
1a
1X
1S
16
1)
1_
15
1(
1Z
1U
14
13
1'
1&
#100000
b11 !
b10 !
0:
19
1*
0`
0\
0V
0Q
0J
0@
0;
0a
0]
0W
0R
0A
06
0)
0X
0S
0_
05
0(
0Z
0U
04
03
0'
0&
#150000
b11 !
1:
0*
1`
1P
1J
0G
1@
1;
1A
#200000
b111 !
b101 !
b100 !
0:
09
17
1*
0`
0P
0J
0@
0;
1E
1B
1a
0A
1Y
16
1)
0a
0B
06
0)
1Z
0Y
14
1'
0Z
04
0'
#250000
b101 !
1:
0*
1^
1\
1V
1Q
1J
1G
1@
1;
1Z
1U
1N
1[
1A
14
13
12
1'
1&
1%
1_
0^
1B
15
1(
1Y
1H
0_
1T
1L
05
0(
0Z
04
0'
0U
1M
03
11
0&
1$
#300000
b111 !
b110 !
0:
19
1*
1`
1^
0\
0V
0Q
1O
0J
0@
1=
0;
0E
0B
1Z
1U
0M
1X
0L
0A
0^
0Y
0H
14
13
01
1'
1&
0$
1_
0Z
0U
1B
0T
1S
15
04
03
1(
0'
0&
1Z
0_
1Y
0X
1H
14
05
1'
0(
1U
1T
0S
13
1&
0Z
1M
04
11
0'
1$
0U
03
0&
#350000
b111 !
1:
0*
0`
1P
0O
1J
0G
1@
0=
1;
0N
1L
0H
0[
1A
0B
02
0%
0T
0L
0Y
0M
01
0$
#400000
b11 !
b1 !
b0 !
0:
09
07
1*
0P
0J
0@
0;
0A
#450000
b1 !
1:
0*
1`
1\
1V
1Q
1J
1G
1@
1;
1]
1W
1R
1A
1a
1X
1S
16
1)
1_
15
1(
1Z
1U
14
13
1'
1&
#500000
b11 !
b10 !
0:
19
1*
0`
0\
0V
0Q
0J
0@
0;
0a
0]
0W
0R
0A
06
0)
0X
0S
0_
05
0(
0Z
0U
04
03
0'
0&
#550000
b11 !
1:
0*
1`
1P
1J
0G
1@
1;
1A
#600000
b111 !
b101 !
b100 !
0:
09
17
1*
0`
0P
0J
0@
0;
1E
1B
1a
0A
1Y
16
1)
0a
0B
06
0)
1Z
0Y
14
1'
0Z
04
0'
#650000
b101 !
1:
0*
1^
1\
1V
1Q
1J
1G
1@
1;
1Z
1U
1N
1[
1A
14
13
12
1'
1&
1%
1_
0^
1B
15
1(
1Y
1H
0_
1T
1L
05
0(
0Z
04
0'
0U
1M
03
11
0&
1$
#700000
b111 !
b110 !
0:
19
1*
1`
1^
0\
0V
0Q
1O
0J
0@
1=
0;
0E
0B
1Z
1U
0M
1X
0L
0A
0^
0Y
0H
14
13
01
1'
1&
0$
1_
0Z
0U
1B
0T
1S
15
04
03
1(
0'
0&
1Z
0_
1Y
0X
1H
14
05
1'
0(
1U
1T
0S
13
1&
0Z
1M
04
11
0'
1$
0U
03
0&
#750000
b111 !
1:
0*
0`
1P
0O
1J
0G
1@
0=
1;
0N
1L
0H
0[
1A
0B
02
0%
0T
0L
0Y
0M
01
0$
#800000
b11 !
b1 !
b0 !
0:
09
07
1*
0P
0J
0@
0;
0A
#850000
b1 !
1:
0*
1`
1\
1V
1Q
1J
1G
1@
1;
1]
1W
1R
1A
1a
1X
1S
16
1)
1_
15
1(
1Z
1U
14
13
1'
1&
#900000
b11 !
b10 !
0:
19
1*
0`
0\
0V
0Q
0J
0@
0;
0a
0]
0W
0R
0A
06
0)
0X
0S
0_
05
0(
0Z
0U
04
03
0'
0&
#950000
b11 !
1:
0*
1`
1P
1J
0G
1@
1;
1A
