simulation/qsim/pfs_add_select.msim.vcd
$comment
	File created using the following command:
		vcd file pfs_add_select.msim.vcd -direction
$end
$date
	Tue Mar 24 16:46:40 2026
$end
$version
	ModelSim Version 10.1d
$end
$timescale
	1ps
$end
$scope module pfs_add_select_vlg_vec_tst $end
$var reg 1 ! a $end
$var reg 1 " b $end
$var reg 1 # c0 $end
$var reg 1 $ c1 $end
$var wire 1 % cout $end
$var wire 1 & s $end
$var wire 1 ' sampler $end
$scope module i1 $end
$var wire 1 ( gnd $end
$var wire 1 ) vcc $end
$var wire 1 * unknown $end
$var tri1 1 + devclrn $end
$var tri1 1 , devpor $end
$var tri1 1 - devoe $end
$var wire 1 . s~output_o $end
$var wire 1 / cout~output_o $end
$var wire 1 0 c1~input_o $end
$var wire 1 1 a~input_o $end
$var wire 1 2 c0~input_o $end
$var wire 1 3 b~input_o $end
$var wire 1 4 inst|inst1~combout $end
$var wire 1 5 inst|inst2|inst3~0_combout $end
$upscope $end
$upscope $end
$enddefinitions $end
#0
$dumpvars
0!
0"
0#
0$
0%
0&
x'
0(
1)
x*
1+
1,
1-
0.
0/
00
01
02
03
14
05
$end
#50000
1!
11
0'
04
1.
1&
#100000
1"
0!
13
01
1'
#150000
1!
11
0'
14
15
0.
1/
0&
1%
#200000
1#
0"
0!
12
03
01
1'
#250000
1!
11
0'
04
1.
1&
#300000
1"
0!
13
01
1'
05
0/
0%
#350000
1!
11
0'
14
15
0.
1/
0&
1%
#400000
1$
0#
0"
0!
10
02
03
01
1'
05
0/
0%
#450000
1!
11
0'
04
1.
1&
#500000
1"
0!
13
01
1'
14
0.
0&
#550000
1!
11
0'
04
1.
1&
#600000
1#
0"
0!
12
03
01
1'
14
15
0.
1/
0&
1%
#650000
1!
11
0'
#700000
1"
0!
13
01
1'
04
05
1.
0/
1&
0%
#750000
1!
11
0'
#800000
0$
0#
0"
0!
00
02
03
01
1'
14
0.
0&
#850000
1!
11
0'
04
1.
1&
#900000
1"
0!
13
01
1'
#950000
1!
11
0'
14
15
0.
1/
0&
1%
