simulation/qsim/pfs_decod4x16.msim.vcd
$comment
	File created using the following command:
		vcd file pfs_decod4x16.msim.vcd -direction
$end
$date
	Sat Mar 21 18:41:07 2026
$end
$version
	ModelSim Version 10.1d
$end
$timescale
	1ps
$end
$scope module pfs_decod4x16_vlg_vec_tst $end
$var reg 4 ! in [3:0] $end
$var wire 1 " out [15] $end
$var wire 1 # out [14] $end
$var wire 1 $ out [13] $end
$var wire 1 % out [12] $end
$var wire 1 & out [11] $end
$var wire 1 ' out [10] $end
$var wire 1 ( out [9] $end
$var wire 1 ) out [8] $end
$var wire 1 * out [7] $end
$var wire 1 + out [6] $end
$var wire 1 , out [5] $end
$var wire 1 - out [4] $end
$var wire 1 . out [3] $end
$var wire 1 / out [2] $end
$var wire 1 0 out [1] $end
$var wire 1 1 out [0] $end
$var wire 1 2 sampler $end
$scope module i1 $end
$var wire 1 3 gnd $end
$var wire 1 4 vcc $end
$var wire 1 5 unknown $end
$var tri1 1 6 devclrn $end
$var tri1 1 7 devpor $end
$var tri1 1 8 devoe $end
$var wire 1 9 out[15]~output_o $end
$var wire 1 : out[14]~output_o $end
$var wire 1 ; out[13]~output_o $end
$var wire 1 < out[12]~output_o $end
$var wire 1 = out[11]~output_o $end
$var wire 1 > out[10]~output_o $end
$var wire 1 ? out[9]~output_o $end
$var wire 1 @ out[8]~output_o $end
$var wire 1 A out[7]~output_o $end
$var wire 1 B out[6]~output_o $end
$var wire 1 C out[5]~output_o $end
$var wire 1 D out[4]~output_o $end
$var wire 1 E out[3]~output_o $end
$var wire 1 F out[2]~output_o $end
$var wire 1 G out[1]~output_o $end
$var wire 1 H out[0]~output_o $end
$var wire 1 I in[2]~input_o $end
$var wire 1 J in[1]~input_o $end
$var wire 1 K in[3]~input_o $end
$var wire 1 L in[0]~input_o $end
$var wire 1 M inst~0_combout $end
$var wire 1 N inst~1_combout $end
$var wire 1 O inst~2_combout $end
$var wire 1 P inst~3_combout $end
$var wire 1 Q inst~4_combout $end
$var wire 1 R inst~5_combout $end
$var wire 1 S inst~6_combout $end
$var wire 1 T inst~7_combout $end
$var wire 1 U inst~8_combout $end
$var wire 1 V inst~9_combout $end
$var wire 1 W inst~10_combout $end
$var wire 1 X inst~11_combout $end
$var wire 1 Y inst~12_combout $end
$var wire 1 Z inst~13_combout $end
$var wire 1 [ inst~14_combout $end
$var wire 1 \ inst~15_combout $end
$upscope $end
$upscope $end
$enddefinitions $end
#0
$dumpvars
b0 !
11
00
0/
0.
0-
0,
0+
0*
0)
0(
0'
0&
0%
0$
0#
0"
x2
03
14
x5
16
17
18
09
0:
0;
0<
0=
0>
0?
0@
0A
0B
0C
0D
0E
0F
0G
1H
0I
0J
0K
0L
0M
0N
0O
0P
0Q
0R
0S
0T
0U
0V
0W
0X
0Y
0Z
0[
1\
$end
#10000
b1 !
1L
02
0\
1[
0H
1G
01
10
#20000
b11 !
b10 !
0L
1J
12
0[
1Z
0G
1F
00
1/
#30000
b11 !
1L
02
0Z
1Y
0F
1E
0/
1.
#40000
b111 !
b101 !
b100 !
0L
0J
1I
12
0Y
1X
0E
1D
0.
1-
#50000
b101 !
1L
02
0X
1W
0D
1C
0-
1,
#60000
b111 !
b110 !
0L
1J
12
0W
1V
0C
1B
0,
1+
#70000
b111 !
1L
02
0V
1U
0B
1A
0+
1*
#80000
b1111 !
b1011 !
b1001 !
b1000 !
0L
0J
0I
1K
12
0U
1T
0A
1@
0*
1)
#90000
b1001 !
1L
02
0T
1S
0@
1?
0)
1(
#100000
b1011 !
b1010 !
0L
1J
12
0S
1R
0?
1>
0(
1'
#110000
b1011 !
1L
02
0R
1Q
0>
1=
0'
1&
#120000
b1111 !
b1101 !
b1100 !
0L
0J
1I
12
0Q
1P
0=
1<
0&
1%
#130000
b1101 !
1L
02
0P
1O
0<
1;
0%
1$
#140000
b1111 !
b1110 !
0L
1J
12
0O
1N
0;
1:
0$
1#
#150000
b1111 !
1L
02
0N
1M
0:
19
0#
1"
#160000
b111 !
b11 !
b1 !
b0 !
0L
0J
0I
0K
12
1\
0M
1H
09
11
0"
#170000
b1 !
1L
02
0\
1[
0H
1G
01
10
#180000
b11 !
b10 !
0L
1J
12
0[
1Z
0G
1F
00
1/
#190000
b11 !
1L
02
0Z
1Y
0F
1E
0/
1.
#200000
b111 !
b101 !
b100 !
0L
0J
1I
12
0Y
1X
0E
1D
0.
1-
#210000
b101 !
1L
02
0X
1W
0D
1C
0-
1,
#220000
b111 !
b110 !
0L
1J
12
0W
1V
0C
1B
0,
1+
#230000
b111 !
1L
02
0V
1U
0B
1A
0+
1*
#240000
b1111 !
b1011 !
b1001 !
b1000 !
0L
0J
0I
1K
12
0U
1T
0A
1@
0*
1)
#250000
b1001 !
1L
02
0T
1S
0@
1?
0)
1(
#260000
b1011 !
b1010 !
0L
1J
12
0S
1R
0?
1>
0(
1'
#270000
b1011 !
1L
02
0R
1Q
0>
1=
0'
1&
#280000
b1111 !
b1101 !
b1100 !
0L
0J
1I
12
0Q
1P
0=
1<
0&
1%
#290000
b1101 !
1L
02
0P
1O
0<
1;
0%
1$
#300000
b1111 !
b1110 !
0L
1J
12
0O
1N
0;
1:
0$
1#
#310000
b1111 !
1L
02
0N
1M
0:
19
0#
1"
#320000
b111 !
b11 !
b1 !
b0 !
0L
0J
0I
0K
12
1\
0M
1H
09
11
0"
#330000
b1 !
1L
02
0\
1[
0H
1G
01
10
#340000
b11 !
b10 !
0L
1J
12
0[
1Z
0G
1F
00
1/
#350000
b11 !
1L
02
0Z
1Y
0F
1E
0/
1.
#360000
b111 !
b101 !
b100 !
0L
0J
1I
12
0Y
1X
0E
1D
0.
1-
#370000
b101 !
1L
02
0X
1W
0D
1C
0-
1,
#380000
b111 !
b110 !
0L
1J
12
0W
1V
0C
1B
0,
1+
#390000
b111 !
1L
02
0V
1U
0B
1A
0+
1*
#400000
b1111 !
b1011 !
b1001 !
b1000 !
0L
0J
0I
1K
12
0U
1T
0A
1@
0*
1)
#410000
b1001 !
1L
02
0T
1S
0@
1?
0)
1(
#420000
b1011 !
b1010 !
0L
1J
12
0S
1R
0?
1>
0(
1'
#430000
b1011 !
1L
02
0R
1Q
0>
1=
0'
1&
#440000
b1111 !
b1101 !
b1100 !
0L
0J
1I
12
0Q
1P
0=
1<
0&
1%
#450000
b1101 !
1L
02
0P
1O
0<
1;
0%
1$
#460000
b1111 !
b1110 !
0L
1J
12
0O
1N
0;
1:
0$
1#
#470000
b1111 !
1L
02
0N
1M
0:
19
0#
1"
#480000
b111 !
b11 !
b1 !
b0 !
0L
0J
0I
0K
12
1\
0M
1H
09
11
0"
#490000
b1 !
1L
02
0\
1[
0H
1G
01
10
#500000
b11 !
b10 !
0L
1J
12
0[
1Z
0G
1F
00
1/
#510000
b11 !
1L
02
0Z
1Y
0F
1E
0/
1.
#520000
b111 !
b101 !
b100 !
0L
0J
1I
12
0Y
1X
0E
1D
0.
1-
#530000
b101 !
1L
02
0X
1W
0D
1C
0-
1,
#540000
b111 !
b110 !
0L
1J
12
0W
1V
0C
1B
0,
1+
#550000
b111 !
1L
02
0V
1U
0B
1A
0+
1*
#560000
b1111 !
b1011 !
b1001 !
b1000 !
0L
0J
0I
1K
12
0U
1T
0A
1@
0*
1)
#570000
b1001 !
1L
02
0T
1S
0@
1?
0)
1(
#580000
b1011 !
b1010 !
0L
1J
12
0S
1R
0?
1>
0(
1'
#590000
b1011 !
1L
02
0R
1Q
0>
1=
0'
1&
#600000
b1111 !
b1101 !
b1100 !
0L
0J
1I
12
0Q
1P
0=
1<
0&
1%
#610000
b1101 !
1L
02
0P
1O
0<
1;
0%
1$
#620000
b1111 !
b1110 !
0L
1J
12
0O
1N
0;
1:
0$
1#
#630000
b1111 !
1L
02
0N
1M
0:
19
0#
1"
#640000
b111 !
b11 !
b1 !
b0 !
0L
0J
0I
0K
12
1\
0M
1H
09
11
0"
#650000
b1 !
1L
02
0\
1[
0H
1G
01
10
#660000
b11 !
b10 !
0L
1J
12
0[
1Z
0G
1F
00
1/
#670000
b11 !
1L
02
0Z
1Y
0F
1E
0/
1.
#680000
b111 !
b101 !
b100 !
0L
0J
1I
12
0Y
1X
0E
1D
0.
1-
#690000
b101 !
1L
02
0X
1W
0D
1C
0-
1,
#700000
b111 !
b110 !
0L
1J
12
0W
1V
0C
1B
0,
1+
#710000
b111 !
1L
02
0V
1U
0B
1A
0+
1*
#720000
b1111 !
b1011 !
b1001 !
b1000 !
0L
0J
0I
1K
12
0U
1T
0A
1@
0*
1)
#730000
b1001 !
1L
02
0T
1S
0@
1?
0)
1(
#740000
b1011 !
b1010 !
0L
1J
12
0S
1R
0?
1>
0(
1'
#750000
b1011 !
1L
02
0R
1Q
0>
1=
0'
1&
#760000
b1111 !
b1101 !
b1100 !
0L
0J
1I
12
0Q
1P
0=
1<
0&
1%
#770000
b1101 !
1L
02
0P
1O
0<
1;
0%
1$
#780000
b1111 !
b1110 !
0L
1J
12
0O
1N
0;
1:
0$
1#
#790000
b1111 !
1L
02
0N
1M
0:
19
0#
1"
#800000
b111 !
b11 !
b1 !
b0 !
0L
0J
0I
0K
12
1\
0M
1H
09
11
0"
#810000
b1 !
1L
02
0\
1[
0H
1G
01
10
#820000
b11 !
b10 !
0L
1J
12
0[
1Z
0G
1F
00
1/
#830000
b11 !
1L
02
0Z
1Y
0F
1E
0/
1.
#840000
b111 !
b101 !
b100 !
0L
0J
1I
12
0Y
1X
0E
1D
0.
1-
#850000
b101 !
1L
02
0X
1W
0D
1C
0-
1,
#860000
b111 !
b110 !
0L
1J
12
0W
1V
0C
1B
0,
1+
#870000
b111 !
1L
02
0V
1U
0B
1A
0+
1*
#880000
b1111 !
b1011 !
b1001 !
b1000 !
0L
0J
0I
1K
12
0U
1T
0A
1@
0*
1)
#890000
b1001 !
1L
02
0T
1S
0@
1?
0)
1(
#900000
b1011 !
b1010 !
0L
1J
12
0S
1R
0?
1>
0(
1'
#910000
b1011 !
1L
02
0R
1Q
0>
1=
0'
1&
#920000
b1111 !
b1101 !
b1100 !
0L
0J
1I
12
0Q
1P
0=
1<
0&
1%
#930000
b1101 !
1L
02
0P
1O
0<
1;
0%
1$
#940000
b1111 !
b1110 !
0L
1J
12
0O
1N
0;
1:
0$
1#
#950000
b1111 !
1L
02
0N
1M
0:
19
0#
1"
#960000
b111 !
b11 !
b1 !
b0 !
0L
0J
0I
0K
12
1\
0M
1H
09
11
0"
#970000
b1 !
1L
02
0\
1[
0H
1G
01
10
#980000
b11 !
b10 !
0L
1J
12
0[
1Z
0G
1F
00
1/
#990000
b11 !
1L
02
0Z
1Y
0F
1E
0/
1.
