simulation/qsim/pfs_mux8x1.msim.vcd
$comment
	File created using the following command:
		vcd file pfs_mux8x1.msim.vcd -direction
$end
$date
	Thu Mar 26 17:11:29 2026
$end
$version
	ModelSim Version 10.1d
$end
$timescale
	1ps
$end
$scope module pfs_mux8x1_vlg_vec_tst $end
$var reg 8 ! e [0:7] $end
$var reg 3 " s [2:0] $end
$var wire 1 # out $end
$var wire 1 $ sampler $end
$scope module i1 $end
$var wire 1 % gnd $end
$var wire 1 & vcc $end
$var wire 1 ' unknown $end
$var tri1 1 ( devclrn $end
$var tri1 1 ) devpor $end
$var tri1 1 * devoe $end
$var wire 1 + out~output_o $end
$var wire 1 , s[1]~input_o $end
$var wire 1 - e[3]~input_o $end
$var wire 1 . e[2]~input_o $end
$var wire 1 / e[0]~input_o $end
$var wire 1 0 e[1]~input_o $end
$var wire 1 1 s[0]~input_o $end
$var wire 1 2 inst|inst2|inst~2_combout $end
$var wire 1 3 inst|inst2|inst~3_combout $end
$var wire 1 4 e[5]~input_o $end
$var wire 1 5 e[7]~input_o $end
$var wire 1 6 e[6]~input_o $end
$var wire 1 7 e[4]~input_o $end
$var wire 1 8 inst|inst2|inst~0_combout $end
$var wire 1 9 inst|inst2|inst~1_combout $end
$var wire 1 : s[2]~input_o $end
$var wire 1 ; inst|inst2|inst~4_combout $end
$upscope $end
$upscope $end
$enddefinitions $end
#0
$dumpvars
b0 !
b0 "
0#
x$
0%
1&
x'
1(
1)
1*
0+
0,
0-
0.
0/
00
01
02
03
04
05
06
07
08
09
0:
0;
$end
#1000
b1 !
15
0$
#2000
b11 !
b10 !
05
16
1$
#3000
b11 !
15
0$
#4000
b111 !
b101 !
b100 !
05
06
14
1$
#5000
b101 !
15
0$
#6000
b111 !
b110 !
05
16
1$
#7000
b111 !
15
0$
#8000
b1111 !
b1011 !
b1001 !
b1000 !
05
06
04
17
1$
18
19
#9000
b1001 !
15
0$
#10000
b1011 !
b1010 !
05
16
1$
#11000
b1011 !
15
0$
#12000
b1111 !
b1101 !
b1100 !
05
06
14
1$
#13000
b1101 !
15
0$
#14000
b1111 !
b1110 !
05
16
1$
#15000
b1111 !
15
0$
#16000
b11111 !
b10111 !
b10011 !
b10001 !
b10000 !
05
06
04
07
1-
1$
08
09
#17000
b10001 !
15
0$
#18000
b10011 !
b10010 !
05
16
1$
#19000
b10011 !
15
0$
#20000
b10111 !
b10101 !
b10100 !
05
06
14
1$
#21000
b10101 !
15
0$
#22000
b10111 !
b10110 !
05
16
1$
#23000
b10111 !
15
0$
#24000
b11111 !
b11011 !
b11001 !
b11000 !
05
06
04
17
1$
18
19
#25000
b11001 !
15
0$
#26000
b11011 !
b11010 !
05
16
1$
#27000
b11011 !
15
0$
#28000
b11111 !
b11101 !
b11100 !
05
06
14
1$
#29000
b11101 !
15
0$
#30000
b11111 !
b11110 !
05
16
1$
#31000
b11111 !
15
0$
#32000
b111111 !
b101111 !
b100111 !
b100011 !
b100001 !
b100000 !
05
06
04
07
0-
1.
1$
08
09
#33000
b100001 !
15
0$
#34000
b100011 !
b100010 !
05
16
1$
#35000
b100011 !
15
0$
#36000
b100111 !
b100101 !
b100100 !
05
06
14
1$
#37000
b100101 !
15
0$
#38000
b100111 !
b100110 !
05
16
1$
#39000
b100111 !
15
0$
#40000
b101111 !
b101011 !
b101001 !
b101000 !
05
06
04
17
1$
18
19
#41000
b101001 !
15
0$
#42000
b101011 !
b101010 !
05
16
1$
#43000
b101011 !
15
0$
#44000
b101111 !
b101101 !
b101100 !
05
06
14
1$
#45000
b101101 !
15
0$
#46000
b101111 !
b101110 !
05
16
1$
#47000
b101111 !
15
0$
#48000
b111111 !
b110111 !
b110011 !
b110001 !
b110000 !
05
06
04
07
1-
1$
08
09
#49000
b110001 !
15
0$
#50000
b1 "
b110011 !
b110010 !
05
16
11
1$
#51000
b110011 !
15
0$
#52000
b110111 !
b110101 !
b110100 !
05
06
14
1$
19
#53000
b110101 !
15
0$
#54000
b110111 !
b110110 !
05
16
1$
#55000
b110111 !
15
0$
#56000
b111111 !
b111011 !
b111001 !
b111000 !
05
06
04
17
1$
09
#57000
b111001 !
15
0$
#58000
b111011 !
b111010 !
05
16
1$
#59000
b111011 !
15
0$
#60000
b111111 !
b111101 !
b111100 !
05
06
14
1$
19
#61000
b111101 !
15
0$
#62000
b111111 !
b111110 !
05
16
1$
#63000
b111111 !
15
0$
#64000
b1111111 !
b1011111 !
b1001111 !
b1000111 !
b1000011 !
b1000001 !
b1000000 !
05
06
04
07
0-
0.
10
1$
09
12
13
1;
1+
1#
#65000
b1000001 !
15
0$
#66000
b1000011 !
b1000010 !
05
16
1$
#67000
b1000011 !
15
0$
#68000
b1000111 !
b1000101 !
b1000100 !
05
06
14
1$
19
#69000
b1000101 !
15
0$
#70000
b1000111 !
b1000110 !
05
16
1$
#71000
b1000111 !
15
0$
#72000
b1001111 !
b1001011 !
b1001001 !
b1001000 !
05
06
04
17
1$
09
#73000
b1001001 !
15
0$
#74000
b1001011 !
b1001010 !
05
16
1$
#75000
b1001011 !
15
0$
#76000
b1001111 !
b1001101 !
b1001100 !
05
06
14
1$
19
#77000
b1001101 !
15
0$
#78000
b1001111 !
b1001110 !
05
16
1$
#79000
b1001111 !
15
0$
#80000
b1011111 !
b1010111 !
b1010011 !
b1010001 !
b1010000 !
05
06
04
07
1-
1$
09
#81000
b1010001 !
15
0$
#82000
b1010011 !
b1010010 !
05
16
1$
#83000
b1010011 !
15
0$
#84000
b1010111 !
b1010101 !
b1010100 !
05
06
14
1$
19
#85000
b1010101 !
15
0$
#86000
b1010111 !
b1010110 !
05
16
1$
#87000
b1010111 !
15
0$
#88000
b1011111 !
b1011011 !
b1011001 !
b1011000 !
05
06
04
17
1$
09
#89000
b1011001 !
15
0$
#90000
b1011011 !
b1011010 !
05
16
1$
#91000
b1011011 !
15
0$
#92000
b1011111 !
b1011101 !
b1011100 !
05
06
14
1$
19
#93000
b1011101 !
15
0$
#94000
b1011111 !
b1011110 !
05
16
1$
#95000
b1011111 !
15
0$
#96000
b1111111 !
b1101111 !
b1100111 !
b1100011 !
b1100001 !
b1100000 !
05
06
04
07
0-
1.
1$
09
#97000
b1100001 !
15
0$
#98000
b1100011 !
b1100010 !
05
16
1$
#99000
b1100011 !
15
0$
#100000
b11 "
b10 "
b1100111 !
b1100101 !
b1100100 !
05
06
14
01
1,
1$
02
03
13
0;
0+
0#
1;
1+
1#
#101000
b1100101 !
15
0$
#102000
b1100111 !
b1100110 !
05
16
1$
18
19
#103000
b1100111 !
15
0$
#104000
b1101111 !
b1101011 !
b1101001 !
b1101000 !
05
06
04
17
1$
08
09
#105000
b1101001 !
15
0$
#106000
b1101011 !
b1101010 !
05
16
1$
18
19
#107000
b1101011 !
15
0$
#108000
b1101111 !
b1101101 !
b1101100 !
05
06
14
1$
08
09
#109000
b1101101 !
15
0$
#110000
b1101111 !
b1101110 !
05
16
1$
18
19
#111000
b1101111 !
15
0$
#112000
b1111111 !
b1110111 !
b1110011 !
b1110001 !
b1110000 !
05
06
04
07
1-
1$
08
09
#113000
b1110001 !
15
0$
#114000
b1110011 !
b1110010 !
05
16
1$
18
19
#115000
b1110011 !
15
0$
#116000
b1110111 !
b1110101 !
b1110100 !
05
06
14
1$
08
09
#117000
b1110101 !
15
0$
#118000
b1110111 !
b1110110 !
05
16
1$
18
19
#119000
b1110111 !
15
0$
#120000
b1111111 !
b1111011 !
b1111001 !
b1111000 !
05
06
04
17
1$
08
09
#121000
b1111001 !
15
0$
#122000
b1111011 !
b1111010 !
05
16
1$
18
19
#123000
b1111011 !
15
0$
#124000
b1111111 !
b1111101 !
b1111100 !
05
06
14
1$
08
09
#125000
b1111101 !
15
0$
#126000
b1111111 !
b1111110 !
05
16
1$
18
19
#127000
b1111111 !
15
0$
#128000
b11111111 !
b10111111 !
b10011111 !
b10001111 !
b10000111 !
b10000011 !
b10000001 !
b10000000 !
05
06
04
07
0-
0.
00
1/
1$
08
03
09
0;
0+
0#
#129000
b10000001 !
15
0$
#130000
b10000011 !
b10000010 !
05
16
1$
18
19
#131000
b10000011 !
15
0$
#132000
b10000111 !
b10000101 !
b10000100 !
05
06
14
1$
08
09
#133000
b10000101 !
15
0$
#134000
b10000111 !
b10000110 !
05
16
1$
18
19
#135000
b10000111 !
15
0$
#136000
b10001111 !
b10001011 !
b10001001 !
b10001000 !
05
06
04
17
1$
08
09
#137000
b10001001 !
15
0$
#138000
b10001011 !
b10001010 !
05
16
1$
18
19
#139000
b10001011 !
15
0$
#140000
b10001111 !
b10001101 !
b10001100 !
05
06
14
1$
08
09
#141000
b10001101 !
15
0$
#142000
b10001111 !
b10001110 !
05
16
1$
18
19
#143000
b10001111 !
15
0$
#144000
b10011111 !
b10010111 !
b10010011 !
b10010001 !
b10010000 !
05
06
04
07
1-
1$
08
09
#145000
b10010001 !
15
0$
#146000
b10010011 !
b10010010 !
05
16
1$
18
19
#147000
b10010011 !
15
0$
#148000
b10010111 !
b10010101 !
b10010100 !
05
06
14
1$
08
09
#149000
b10010101 !
15
0$
#150000
b11 "
b10010111 !
b10010110 !
05
16
11
1$
19
18
12
09
13
1;
1+
1#
#151000
b10010111 !
15
0$
19
#152000
b10011111 !
b10011011 !
b10011001 !
b10011000 !
05
06
04
17
1$
09
#153000
b10011001 !
15
0$
19
#154000
b10011011 !
b10011010 !
05
16
1$
09
#155000
b10011011 !
15
0$
19
#156000
b10011111 !
b10011101 !
b10011100 !
05
06
14
1$
09
#157000
b10011101 !
15
0$
19
#158000
b10011111 !
b10011110 !
05
16
1$
09
#159000
b10011111 !
15
0$
19
#160000
b10111111 !
b10101111 !
b10100111 !
b10100011 !
b10100001 !
b10100000 !
05
06
04
07
0-
1.
1$
09
03
0;
0+
0#
#161000
b10100001 !
15
0$
19
#162000
b10100011 !
b10100010 !
05
16
1$
09
#163000
b10100011 !
15
0$
19
#164000
b10100111 !
b10100101 !
b10100100 !
05
06
14
1$
09
#165000
b10100101 !
15
0$
19
#166000
b10100111 !
b10100110 !
05
16
1$
09
#167000
b10100111 !
15
0$
19
#168000
b10101111 !
b10101011 !
b10101001 !
b10101000 !
05
06
04
17
1$
09
#169000
b10101001 !
15
0$
19
#170000
b10101011 !
b10101010 !
05
16
1$
09
#171000
b10101011 !
15
0$
19
#172000
b10101111 !
b10101101 !
b10101100 !
05
06
14
1$
09
#173000
b10101101 !
15
0$
19
#174000
b10101111 !
b10101110 !
05
16
1$
09
#175000
b10101111 !
15
0$
19
#176000
b10111111 !
b10110111 !
b10110011 !
b10110001 !
b10110000 !
05
06
04
07
1-
1$
09
13
1;
1+
1#
#177000
b10110001 !
15
0$
19
#178000
b10110011 !
b10110010 !
05
16
1$
09
#179000
b10110011 !
15
0$
19
#180000
b10110111 !
b10110101 !
b10110100 !
05
06
14
1$
09
#181000
b10110101 !
15
0$
19
#182000
b10110111 !
b10110110 !
05
16
1$
09
#183000
b10110111 !
15
0$
19
#184000
b10111111 !
b10111011 !
b10111001 !
b10111000 !
05
06
04
17
1$
09
#185000
b10111001 !
15
0$
19
#186000
b10111011 !
b10111010 !
05
16
1$
09
#187000
b10111011 !
15
0$
19
#188000
b10111111 !
b10111101 !
b10111100 !
05
06
14
1$
09
#189000
b10111101 !
15
0$
19
#190000
b10111111 !
b10111110 !
05
16
1$
09
#191000
b10111111 !
15
0$
19
#192000
b11111111 !
b11011111 !
b11001111 !
b11000111 !
b11000011 !
b11000001 !
b11000000 !
05
06
04
07
0-
0.
10
1$
09
03
0;
0+
0#
#193000
b11000001 !
15
0$
19
#194000
b11000011 !
b11000010 !
05
16
1$
09
#195000
b11000011 !
15
0$
19
#196000
b11000111 !
b11000101 !
b11000100 !
05
06
14
1$
09
#197000
b11000101 !
15
0$
19
#198000
b11000111 !
b11000110 !
05
16
1$
09
#199000
b11000111 !
15
0$
19
#200000
b111 "
b101 "
b100 "
b11001111 !
b11001011 !
b11001001 !
b11001000 !
05
06
04
17
01
0,
1:
1$
13
1;
1+
1#
#201000
b11001001 !
15
0$
#202000
b11001011 !
b11001010 !
05
16
1$
#203000
b11001011 !
15
0$
#204000
b11001111 !
b11001101 !
b11001100 !
05
06
14
1$
#205000
b11001101 !
15
0$
#206000
b11001111 !
b11001110 !
05
16
1$
#207000
b11001111 !
15
0$
#208000
b11011111 !
b11010111 !
b11010011 !
b11010001 !
b11010000 !
05
06
04
07
1-
1$
08
09
0;
0+
0#
#209000
b11010001 !
15
0$
#210000
b11010011 !
b11010010 !
05
16
1$
#211000
b11010011 !
15
0$
#212000
b11010111 !
b11010101 !
b11010100 !
05
06
14
1$
#213000
b11010101 !
15
0$
#214000
b11010111 !
b11010110 !
05
16
1$
#215000
b11010111 !
15
0$
#216000
b11011111 !
b11011011 !
b11011001 !
b11011000 !
05
06
04
17
1$
18
19
1;
1+
1#
#217000
b11011001 !
15
0$
#218000
b11011011 !
b11011010 !
05
16
1$
#219000
b11011011 !
15
0$
#220000
b11011111 !
b11011101 !
b11011100 !
05
06
14
1$
#221000
b11011101 !
15
0$
#222000
b11011111 !
b11011110 !
05
16
1$
#223000
b11011111 !
15
0$
#224000
b11111111 !
b11101111 !
b11100111 !
b11100011 !
b11100001 !
b11100000 !
05
06
04
07
0-
1.
1$
08
09
0;
0+
0#
#225000
b11100001 !
15
0$
#226000
b11100011 !
b11100010 !
05
16
1$
#227000
b11100011 !
15
0$
#228000
b11100111 !
b11100101 !
b11100100 !
05
06
14
1$
#229000
b11100101 !
15
0$
#230000
b11100111 !
b11100110 !
05
16
1$
#231000
b11100111 !
15
0$
#232000
b11101111 !
b11101011 !
b11101001 !
b11101000 !
05
06
04
17
1$
18
19
1;
1+
1#
#233000
b11101001 !
15
0$
#234000
b11101011 !
b11101010 !
05
16
1$
#235000
b11101011 !
15
0$
#236000
b11101111 !
b11101101 !
b11101100 !
05
06
14
1$
#237000
b11101101 !
15
0$
#238000
b11101111 !
b11101110 !
05
16
1$
#239000
b11101111 !
15
0$
#240000
b11111111 !
b11110111 !
b11110011 !
b11110001 !
b11110000 !
05
06
04
07
1-
1$
08
09
0;
0+
0#
#241000
b11110001 !
15
0$
#242000
b11110011 !
b11110010 !
05
16
1$
#243000
b11110011 !
15
0$
#244000
b11110111 !
b11110101 !
b11110100 !
05
06
14
1$
#245000
b11110101 !
15
0$
#246000
b11110111 !
b11110110 !
05
16
1$
#247000
b11110111 !
15
0$
#248000
b11111111 !
b11111011 !
b11111001 !
b11111000 !
05
06
04
17
1$
18
19
1;
1+
1#
#249000
b11111001 !
15
0$
#250000
b101 "
b11111011 !
b11111010 !
05
16
11
1$
09
08
0;
0+
0#
#251000
b11111011 !
15
0$
#252000
b11111111 !
b11111101 !
b11111100 !
05
06
14
1$
19
1;
1+
1#
#253000
b11111101 !
15
0$
#254000
b11111111 !
b11111110 !
05
16
1$
#255000
b11111111 !
15
0$
#256000
b1111111 !
b111111 !
b11111 !
b1111 !
b111 !
b11 !
b1 !
b0 !
05
06
04
07
0-
0.
00
0/
1$
09
02
03
0;
0+
0#
#257000
b1 !
15
0$
#258000
b11 !
b10 !
05
16
1$
#259000
b11 !
15
0$
#260000
b111 !
b101 !
b100 !
05
06
14
1$
19
1;
1+
1#
#261000
b101 !
15
0$
#262000
b111 !
b110 !
05
16
1$
#263000
b111 !
15
0$
#264000
b1111 !
b1011 !
b1001 !
b1000 !
05
06
04
17
1$
09
0;
0+
0#
#265000
b1001 !
15
0$
#266000
b1011 !
b1010 !
05
16
1$
#267000
b1011 !
15
0$
#268000
b1111 !
b1101 !
b1100 !
05
06
14
1$
19
1;
1+
1#
#269000
b1101 !
15
0$
#270000
b1111 !
b1110 !
05
16
1$
#271000
b1111 !
15
0$
#272000
b11111 !
b10111 !
b10011 !
b10001 !
b10000 !
05
06
04
07
1-
1$
09
0;
0+
0#
#273000
b10001 !
15
0$
#274000
b10011 !
b10010 !
05
16
1$
#275000
b10011 !
15
0$
#276000
b10111 !
b10101 !
b10100 !
05
06
14
1$
19
1;
1+
1#
#277000
b10101 !
15
0$
#278000
b10111 !
b10110 !
05
16
1$
#279000
b10111 !
15
0$
#280000
b11111 !
b11011 !
b11001 !
b11000 !
05
06
04
17
1$
09
0;
0+
0#
#281000
b11001 !
15
0$
#282000
b11011 !
b11010 !
05
16
1$
#283000
b11011 !
15
0$
#284000
b11111 !
b11101 !
b11100 !
05
06
14
1$
19
1;
1+
1#
#285000
b11101 !
15
0$
#286000
b11111 !
b11110 !
05
16
1$
#287000
b11111 !
15
0$
#288000
b111111 !
b101111 !
b100111 !
b100011 !
b100001 !
b100000 !
05
06
04
07
0-
1.
1$
09
0;
0+
0#
#289000
b100001 !
15
0$
#290000
b100011 !
b100010 !
05
16
1$
#291000
b100011 !
15
0$
#292000
b100111 !
b100101 !
b100100 !
05
06
14
1$
19
1;
1+
1#
#293000
b100101 !
15
0$
#294000
b100111 !
b100110 !
05
16
1$
#295000
b100111 !
15
0$
#296000
b101111 !
b101011 !
b101001 !
b101000 !
05
06
04
17
1$
09
0;
0+
0#
#297000
b101001 !
15
0$
#298000
b101011 !
b101010 !
05
16
1$
#299000
b101011 !
15
0$
#300000
b111 "
b110 "
b101111 !
b101101 !
b101100 !
05
06
14
01
1,
1$
13
#301000
b101101 !
15
0$
#302000
b101111 !
b101110 !
05
16
1$
18
19
1;
1+
1#
#303000
b101111 !
15
0$
#304000
b111111 !
b110111 !
b110011 !
b110001 !
b110000 !
05
06
04
07
1-
1$
08
09
0;
0+
0#
#305000
b110001 !
15
0$
#306000
b110011 !
b110010 !
05
16
1$
18
19
1;
1+
1#
#307000
b110011 !
15
0$
#308000
b110111 !
b110101 !
b110100 !
05
06
14
1$
08
09
0;
0+
0#
#309000
b110101 !
15
0$
#310000
b110111 !
b110110 !
05
16
1$
18
19
1;
1+
1#
#311000
b110111 !
15
0$
#312000
b111111 !
b111011 !
b111001 !
b111000 !
05
06
04
17
1$
08
09
0;
0+
0#
#313000
b111001 !
15
0$
#314000
b111011 !
b111010 !
05
16
1$
18
19
1;
1+
1#
#315000
b111011 !
15
0$
#316000
b111111 !
b111101 !
b111100 !
05
06
14
1$
08
09
0;
0+
0#
#317000
b111101 !
15
0$
#318000
b111111 !
b111110 !
05
16
1$
18
19
1;
1+
1#
#319000
b111111 !
15
0$
#320000
b1111111 !
b1011111 !
b1001111 !
b1000111 !
b1000011 !
b1000001 !
b1000000 !
05
06
04
07
0-
0.
10
1$
08
03
09
0;
0+
0#
#321000
b1000001 !
15
0$
#322000
b1000011 !
b1000010 !
05
16
1$
18
19
1;
1+
1#
#323000
b1000011 !
15
0$
#324000
b1000111 !
b1000101 !
b1000100 !
05
06
14
1$
08
09
0;
0+
0#
#325000
b1000101 !
15
0$
#326000
b1000111 !
b1000110 !
05
16
1$
18
19
1;
1+
1#
#327000
b1000111 !
15
0$
#328000
b1001111 !
b1001011 !
b1001001 !
b1001000 !
05
06
04
17
1$
08
09
0;
0+
0#
#329000
b1001001 !
15
0$
#330000
b1001011 !
b1001010 !
05
16
1$
18
19
1;
1+
1#
#331000
b1001011 !
15
0$
#332000
b1001111 !
b1001101 !
b1001100 !
05
06
14
1$
08
09
0;
0+
0#
#333000
b1001101 !
15
0$
#334000
b1001111 !
b1001110 !
05
16
1$
18
19
1;
1+
1#
#335000
b1001111 !
15
0$
#336000
b1011111 !
b1010111 !
b1010011 !
b1010001 !
b1010000 !
05
06
04
07
1-
1$
08
09
0;
0+
0#
#337000
b1010001 !
15
0$
#338000
b1010011 !
b1010010 !
05
16
1$
18
19
1;
1+
1#
#339000
b1010011 !
15
0$
#340000
b1010111 !
b1010101 !
b1010100 !
05
06
14
1$
08
09
0;
0+
0#
#341000
b1010101 !
15
0$
#342000
b1010111 !
b1010110 !
05
16
1$
18
19
1;
1+
1#
#343000
b1010111 !
15
0$
#344000
b1011111 !
b1011011 !
b1011001 !
b1011000 !
05
06
04
17
1$
08
09
0;
0+
0#
#345000
b1011001 !
15
0$
#346000
b1011011 !
b1011010 !
05
16
1$
18
19
1;
1+
1#
#347000
b1011011 !
15
0$
#348000
b1011111 !
b1011101 !
b1011100 !
05
06
14
1$
08
09
0;
0+
0#
#349000
b1011101 !
15
0$
#350000
b111 "
b1011111 !
b1011110 !
05
16
11
1$
19
18
12
09
13
1;
1+
1#
0;
0+
0#
#351000
b1011111 !
15
0$
19
1;
1+
1#
#352000
b1111111 !
b1101111 !
b1100111 !
b1100011 !
b1100001 !
b1100000 !
05
06
04
07
0-
1.
1$
09
03
0;
0+
0#
#353000
b1100001 !
15
0$
19
1;
1+
1#
#354000
b1100011 !
b1100010 !
05
16
1$
09
0;
0+
0#
#355000
b1100011 !
15
0$
19
1;
1+
1#
#356000
b1100111 !
b1100101 !
b1100100 !
05
06
14
1$
09
0;
0+
0#
#357000
b1100101 !
15
0$
19
1;
1+
1#
#358000
b1100111 !
b1100110 !
05
16
1$
09
0;
0+
0#
#359000
b1100111 !
15
0$
19
1;
1+
1#
#360000
b1101111 !
b1101011 !
b1101001 !
b1101000 !
05
06
04
17
1$
09
0;
0+
0#
#361000
b1101001 !
15
0$
19
1;
1+
1#
#362000
b1101011 !
b1101010 !
05
16
1$
09
0;
0+
0#
#363000
b1101011 !
15
0$
19
1;
1+
1#
#364000
b1101111 !
b1101101 !
b1101100 !
05
06
14
1$
09
0;
0+
0#
#365000
b1101101 !
15
0$
19
1;
1+
1#
#366000
b1101111 !
b1101110 !
05
16
1$
09
0;
0+
0#
#367000
b1101111 !
15
0$
19
1;
1+
1#
#368000
b1111111 !
b1110111 !
b1110011 !
b1110001 !
b1110000 !
05
06
04
07
1-
1$
09
13
0;
0+
0#
#369000
b1110001 !
15
0$
19
1;
1+
1#
#370000
b1110011 !
b1110010 !
05
16
1$
09
0;
0+
0#
#371000
b1110011 !
15
0$
19
1;
1+
1#
#372000
b1110111 !
b1110101 !
b1110100 !
05
06
14
1$
09
0;
0+
0#
#373000
b1110101 !
15
0$
19
1;
1+
1#
#374000
b1110111 !
b1110110 !
05
16
1$
09
0;
0+
0#
#375000
b1110111 !
15
0$
19
1;
1+
1#
#376000
b1111111 !
b1111011 !
b1111001 !
b1111000 !
05
06
04
17
1$
09
0;
0+
0#
#377000
b1111001 !
15
0$
19
1;
1+
1#
#378000
b1111011 !
b1111010 !
05
16
1$
09
0;
0+
0#
#379000
b1111011 !
15
0$
19
1;
1+
1#
#380000
b1111111 !
b1111101 !
b1111100 !
05
06
14
1$
09
0;
0+
0#
#381000
b1111101 !
15
0$
19
1;
1+
1#
#382000
b1111111 !
b1111110 !
05
16
1$
09
0;
0+
0#
#383000
b1111111 !
15
0$
19
1;
1+
1#
#384000
b11111111 !
b10111111 !
b10011111 !
b10001111 !
b10000111 !
b10000011 !
b10000001 !
b10000000 !
05
06
04
07
0-
0.
00
1/
1$
09
03
0;
0+
0#
#385000
b10000001 !
15
0$
19
1;
1+
1#
#386000
b10000011 !
b10000010 !
05
16
1$
09
0;
0+
0#
#387000
b10000011 !
15
0$
19
1;
1+
1#
#388000
b10000111 !
b10000101 !
b10000100 !
05
06
14
1$
09
0;
0+
0#
#389000
b10000101 !
15
0$
19
1;
1+
1#
#390000
b10000111 !
b10000110 !
05
16
1$
09
0;
0+
0#
#391000
b10000111 !
15
0$
19
1;
1+
1#
#392000
b10001111 !
b10001011 !
b10001001 !
b10001000 !
05
06
04
17
1$
09
0;
0+
0#
#393000
b10001001 !
15
0$
19
1;
1+
1#
#394000
b10001011 !
b10001010 !
05
16
1$
09
0;
0+
0#
#395000
b10001011 !
15
0$
19
1;
1+
1#
#396000
b10001111 !
b10001101 !
b10001100 !
05
06
14
1$
09
0;
0+
0#
#397000
b10001101 !
15
0$
19
1;
1+
1#
#398000
b10001111 !
b10001110 !
05
16
1$
09
0;
0+
0#
#399000
b10001111 !
15
0$
19
1;
1+
1#
#400000
b11 "
b1 "
b0 "
b10011111 !
b10010111 !
b10010011 !
b10010001 !
b10010000 !
05
06
04
07
1-
01
0,
0:
1$
08
13
0;
09
0+
0#
1;
1+
1#
#401000
b10010001 !
15
0$
#402000
b10010011 !
b10010010 !
05
16
1$
#403000
b10010011 !
15
0$
#404000
b10010111 !
b10010101 !
b10010100 !
05
06
14
1$
#405000
b10010101 !
15
0$
#406000
b10010111 !
b10010110 !
05
16
1$
#407000
b10010111 !
15
0$
#408000
b10011111 !
b10011011 !
b10011001 !
b10011000 !
05
06
04
17
1$
18
19
#409000
b10011001 !
15
0$
#410000
b10011011 !
b10011010 !
05
16
1$
#411000
b10011011 !
15
0$
#412000
b10011111 !
b10011101 !
b10011100 !
05
06
14
1$
#413000
b10011101 !
15
0$
#414000
b10011111 !
b10011110 !
05
16
1$
#415000
b10011111 !
15
0$
#416000
b10111111 !
b10101111 !
b10100111 !
b10100011 !
b10100001 !
b10100000 !
05
06
04
07
0-
1.
1$
08
09
#417000
b10100001 !
15
0$
#418000
b10100011 !
b10100010 !
05
16
1$
#419000
b10100011 !
15
0$
#420000
b10100111 !
b10100101 !
b10100100 !
05
06
14
1$
#421000
b10100101 !
15
0$
#422000
b10100111 !
b10100110 !
05
16
1$
#423000
b10100111 !
15
0$
#424000
b10101111 !
b10101011 !
b10101001 !
b10101000 !
05
06
04
17
1$
18
19
#425000
b10101001 !
15
0$
#426000
b10101011 !
b10101010 !
05
16
1$
#427000
b10101011 !
15
0$
#428000
b10101111 !
b10101101 !
b10101100 !
05
06
14
1$
#429000
b10101101 !
15
0$
#430000
b10101111 !
b10101110 !
05
16
1$
#431000
b10101111 !
15
0$
#432000
b10111111 !
b10110111 !
b10110011 !
b10110001 !
b10110000 !
05
06
04
07
1-
1$
08
09
#433000
b10110001 !
15
0$
#434000
b10110011 !
b10110010 !
05
16
1$
#435000
b10110011 !
15
0$
#436000
b10110111 !
b10110101 !
b10110100 !
05
06
14
1$
#437000
b10110101 !
15
0$
#438000
b10110111 !
b10110110 !
05
16
1$
#439000
b10110111 !
15
0$
#440000
b10111111 !
b10111011 !
b10111001 !
b10111000 !
05
06
04
17
1$
18
19
#441000
b10111001 !
15
0$
#442000
b10111011 !
b10111010 !
05
16
1$
#443000
b10111011 !
15
0$
#444000
b10111111 !
b10111101 !
b10111100 !
05
06
14
1$
#445000
b10111101 !
15
0$
#446000
b10111111 !
b10111110 !
05
16
1$
#447000
b10111111 !
15
0$
#448000
b11111111 !
b11011111 !
b11001111 !
b11000111 !
b11000011 !
b11000001 !
b11000000 !
05
06
04
07
0-
0.
10
1$
08
09
#449000
b11000001 !
15
0$
#450000
b1 "
b11000011 !
b11000010 !
05
16
11
1$
#451000
b11000011 !
15
0$
#452000
b11000111 !
b11000101 !
b11000100 !
05
06
14
1$
19
#453000
b11000101 !
15
0$
#454000
b11000111 !
b11000110 !
05
16
1$
#455000
b11000111 !
15
0$
#456000
b11001111 !
b11001011 !
b11001001 !
b11001000 !
05
06
04
17
1$
09
#457000
b11001001 !
15
0$
#458000
b11001011 !
b11001010 !
05
16
1$
#459000
b11001011 !
15
0$
#460000
b11001111 !
b11001101 !
b11001100 !
05
06
14
1$
19
#461000
b11001101 !
15
0$
#462000
b11001111 !
b11001110 !
05
16
1$
#463000
b11001111 !
15
0$
#464000
b11011111 !
b11010111 !
b11010011 !
b11010001 !
b11010000 !
05
06
04
07
1-
1$
09
#465000
b11010001 !
15
0$
#466000
b11010011 !
b11010010 !
05
16
1$
#467000
b11010011 !
15
0$
#468000
b11010111 !
b11010101 !
b11010100 !
05
06
14
1$
19
#469000
b11010101 !
15
0$
#470000
b11010111 !
b11010110 !
05
16
1$
#471000
b11010111 !
15
0$
#472000
b11011111 !
b11011011 !
b11011001 !
b11011000 !
05
06
04
17
1$
09
#473000
b11011001 !
15
0$
#474000
b11011011 !
b11011010 !
05
16
1$
#475000
b11011011 !
15
0$
#476000
b11011111 !
b11011101 !
b11011100 !
05
06
14
1$
19
#477000
b11011101 !
15
0$
#478000
b11011111 !
b11011110 !
05
16
1$
#479000
b11011111 !
15
0$
#480000
b11111111 !
b11101111 !
b11100111 !
b11100011 !
b11100001 !
b11100000 !
05
06
04
07
0-
1.
1$
09
#481000
b11100001 !
15
0$
#482000
b11100011 !
b11100010 !
05
16
1$
#483000
b11100011 !
15
0$
#484000
b11100111 !
b11100101 !
b11100100 !
05
06
14
1$
19
#485000
b11100101 !
15
0$
#486000
b11100111 !
b11100110 !
05
16
1$
#487000
b11100111 !
15
0$
#488000
b11101111 !
b11101011 !
b11101001 !
b11101000 !
05
06
04
17
1$
09
#489000
b11101001 !
15
0$
#490000
b11101011 !
b11101010 !
05
16
1$
#491000
b11101011 !
15
0$
#492000
b11101111 !
b11101101 !
b11101100 !
05
06
14
1$
19
#493000
b11101101 !
15
0$
#494000
b11101111 !
b11101110 !
05
16
1$
#495000
b11101111 !
15
0$
#496000
b11111111 !
b11110111 !
b11110011 !
b11110001 !
b11110000 !
05
06
04
07
1-
1$
09
#497000
b11110001 !
15
0$
#498000
b11110011 !
b11110010 !
05
16
1$
#499000
b11110011 !
15
0$
#500000
b11 "
b10 "
b11110111 !
b11110101 !
b11110100 !
05
06
14
01
1,
1$
02
#501000
b11110101 !
15
0$
#502000
b11110111 !
b11110110 !
05
16
1$
18
19
#503000
b11110111 !
15
0$
#504000
b11111111 !
b11111011 !
b11111001 !
b11111000 !
05
06
04
17
1$
08
09
#505000
b11111001 !
15
0$
#506000
b11111011 !
b11111010 !
05
16
1$
18
19
#507000
b11111011 !
15
0$
#508000
b11111111 !
b11111101 !
b11111100 !
05
06
14
1$
08
09
#509000
b11111101 !
15
0$
#510000
b11111111 !
b11111110 !
05
16
1$
18
19
#511000
b11111111 !
15
0$
