simulation/qsim/pfs_ula_4bits.msim.vcd
$comment
	File created using the following command:
		vcd file pfs_ula_4bits.msim.vcd -direction
$end
$date
	Thu Apr 16 18:10:31 2026
$end
$version
	ModelSim Version 10.1d
$end
$timescale
	1ps
$end
$scope module pfs_ula_4bits_vlg_vec_tst $end
$var reg 3 ! sel [2:0] $end
$var reg 4 " x [3:0] $end
$var reg 4 # y [3:0] $end
$var wire 1 $ cout $end
$var wire 1 % s [3] $end
$var wire 1 & s [2] $end
$var wire 1 ' s [1] $end
$var wire 1 ( s [0] $end
$var wire 1 ) sampler $end
$scope module i1 $end
$var wire 1 * gnd $end
$var wire 1 + vcc $end
$var wire 1 , unknown $end
$var tri1 1 - devclrn $end
$var tri1 1 . devpor $end
$var tri1 1 / devoe $end
$var wire 1 0 cout~output_o $end
$var wire 1 1 s[3]~output_o $end
$var wire 1 2 s[2]~output_o $end
$var wire 1 3 s[1]~output_o $end
$var wire 1 4 s[0]~output_o $end
$var wire 1 5 x[0]~input_o $end
$var wire 1 6 x[2]~input_o $end
$var wire 1 7 sel[0]~input_o $end
$var wire 1 8 y[2]~input_o $end
$var wire 1 9 sel[2]~input_o $end
$var wire 1 : inst7|inst|inst3|inst~4_combout $end
$var wire 1 ; x[1]~input_o $end
$var wire 1 < inst7|inst7|inst1~0_combout $end
$var wire 1 = sel[1]~input_o $end
$var wire 1 > inst7|inst|inst3|inst~0_combout $end
$var wire 1 ? inst7|inst|inst3|inst~1_combout $end
$var wire 1 @ inst7|inst|inst3|inst~2_combout $end
$var wire 1 A inst7|inst|inst3|inst~3_combout $end
$var wire 1 B inst7|inst|inst3|inst~5_combout $end
$var wire 1 C y[0]~input_o $end
$var wire 1 D inst4|inst7|inst1~0_combout $end
$var wire 1 E inst4|inst|inst3|inst~0_combout $end
$var wire 1 F inst4|inst|inst3|inst~1_combout $end
$var wire 1 G inst4|inst|inst3|inst~2_combout $end
$var wire 1 H inst4|inst|inst3|inst~3_combout $end
$var wire 1 I y[1]~input_o $end
$var wire 1 J inst3|inst7|inst1~0_combout $end
$var wire 1 K inst3|inst|inst3|inst~0_combout $end
$var wire 1 L inst3|inst|inst3|inst~1_combout $end
$var wire 1 M inst3|inst|inst3|inst~2_combout $end
$var wire 1 N inst3|inst|inst3|inst~3_combout $end
$var wire 1 O inst6~combout $end
$var wire 1 P inst7|inst8~0_combout $end
$var wire 1 Q x[3]~input_o $end
$var wire 1 R inst|inst8~0_combout $end
$var wire 1 S y[3]~input_o $end
$var wire 1 T inst|inst7|inst1~0_combout $end
$var wire 1 U inst|inst|inst3|inst~0_combout $end
$var wire 1 V inst|inst|inst3|inst~1_combout $end
$var wire 1 W inst|inst|inst3|inst~2_combout $end
$var wire 1 X inst|inst|inst3|inst~3_combout $end
$upscope $end
$upscope $end
$enddefinitions $end
#0
$dumpvars
b100 !
b0 "
b0 #
x$
x(
x'
x&
x%
x)
0*
1+
x,
1-
1.
1/
x0
x1
x2
x3
x4
05
06
07
08
19
1:
0;
x<
0=
1>
x?
0@
0A
xB
0C
xD
0E
1F
0G
xH
0I
xJ
0K
1L
0M
xN
xO
xP
0Q
xR
0S
0T
xU
0V
1W
xX
$end
#10000
b1 "
15
0)
1P
1J
0F
1<
1U
1?
1R
1N
10
13
1$
1'
1X
1B
11
12
1%
1&
#20000
b11 "
b10 "
05
1;
1)
xJ
1F
0L
xN
x3
x'
#30000
b11 "
15
0)
0J
0F
0N
03
0'
#40000
b111 "
b101 "
b100 "
05
0;
16
1)
xJ
1F
x<
1L
1@
0:
x?
xN
x3
x'
xB
x2
x&
#50000
b101 "
15
0)
1J
0F
0<
0?
1N
13
1'
0B
0O
02
0&
1D
1H
14
1(
#60000
b111 "
b110 "
05
1;
1)
1F
0D
0L
0H
04
0(
#70000
b111 "
15
0)
0J
0F
1D
0N
1H
03
14
0'
1(
#80000
b1111 "
b1011 "
b1001 "
b1000 "
05
0;
06
1Q
1)
0P
1F
0D
1L
0@
1:
0W
1T
0H
04
0(
#90000
b1001 "
15
0)
1P
1J
0F
1D
1<
0U
1?
1N
1H
13
14
1'
1(
0X
1B
01
12
0%
1&
#100000
b1011 "
b1010 "
05
1;
1)
1F
0D
0L
0H
1O
04
0(
0J
1D
0N
1H
03
14
0'
1(
