simulation/qsim/pfs_inc_count.msim.vcd
$comment
	File created using the following command:
		vcd file pfs_inc_count.msim.vcd -direction
$end
$date
	Thu Apr 09 14:03:47 2026
$end
$version
	ModelSim Version 10.1d
$end
$timescale
	1ps
$end
$scope module pfs_inc_count_vlg_vec_tst $end
$var reg 1 ! clk $end
$var reg 1 " reset $end
$var wire 1 # q [3] $end
$var wire 1 $ q [2] $end
$var wire 1 % q [1] $end
$var wire 1 & q [0] $end
$var wire 1 ' sampler $end
$scope module i1 $end
$var wire 1 ( gnd $end
$var wire 1 ) vcc $end
$var wire 1 * unknown $end
$var tri1 1 + devclrn $end
$var tri1 1 , devpor $end
$var tri1 1 - devoe $end
$var wire 1 . q[3]~output_o $end
$var wire 1 / q[2]~output_o $end
$var wire 1 0 q[1]~output_o $end
$var wire 1 1 q[0]~output_o $end
$var wire 1 2 clk~input_o $end
$var wire 1 3 clk~inputclkctrl_outclk $end
$var wire 1 4 inst~0_combout $end
$var wire 1 5 reset~input_o $end
$var wire 1 6 reset~inputclkctrl_outclk $end
$var wire 1 7 inst~q $end
$var wire 1 8 inst2~0_combout $end
$var wire 1 9 inst2~q $end
$var wire 1 : inst3~0_combout $end
$var wire 1 ; inst3~q $end
$var wire 1 < inst4~0_combout $end
$var wire 1 = inst4~q $end
$upscope $end
$upscope $end
$enddefinitions $end
#0
$dumpvars
0!
1"
0&
0%
0$
0#
x'
0(
1)
x*
1+
1,
1-
0.
0/
00
01
02
03
14
15
16
07
08
09
0:
0;
0<
0=
$end
#10000
1!
12
13
0'
#20000
0!
02
03
1'
#30000
1!
12
13
0'
#40000
0!
02
03
1'
#50000
0"
1!
05
12
06
13
0'
#60000
0!
02
03
1'
#70000
1!
12
13
0'
17
18
04
11
1&
#80000
0!
02
03
1'
#90000
1!
12
13
0'
19
07
14
10
01
1%
0&
#100000
0!
02
03
1'
#110000
1!
12
13
0'
17
1:
08
04
11
1&
#120000
0!
02
03
1'
#130000
1!
12
13
0'
1;
09
07
14
1/
00
01
1$
0%
0&
#140000
0!
02
03
1'
#150000
1!
12
13
0'
17
18
04
11
1&
#160000
0!
02
03
1'
#170000
1!
12
13
0'
19
07
14
10
01
1%
0&
#180000
0!
02
03
1'
#190000
1!
12
13
0'
17
1<
0:
08
04
11
1&
#200000
0!
02
03
1'
#210000
1!
12
13
0'
1=
0;
09
07
14
1.
0/
00
01
1#
0$
0%
0&
#220000
0!
02
03
1'
#230000
1!
12
13
0'
17
18
04
11
1&
#240000
0!
02
03
1'
#250000
1!
12
13
0'
19
07
14
10
01
1%
0&
#260000
0!
02
03
1'
#270000
1!
12
13
0'
17
1:
08
04
11
1&
#280000
0!
02
03
1'
#290000
1!
12
13
0'
1;
09
07
14
1/
00
01
1$
0%
0&
#300000
0!
02
03
1'
#310000
1!
12
13
0'
17
18
04
11
1&
#320000
0!
02
03
1'
#330000
1!
12
13
0'
19
07
14
10
01
1%
0&
#340000
0!
02
03
1'
#350000
1!
12
13
0'
17
0<
0:
08
04
11
1&
#360000
0!
02
03
1'
#370000
1!
12
13
0'
0=
0;
09
07
14
0.
0/
00
01
0#
0$
0%
0&
#380000
0!
02
03
1'
#390000
1!
12
13
0'
17
18
04
11
1&
#400000
0!
02
03
1'
#410000
1!
12
13
0'
19
07
14
10
01
1%
0&
#420000
0!
02
03
1'
#430000
1!
12
13
0'
17
1:
08
04
11
1&
#440000
0!
02
03
1'
#450000
1!
12
13
0'
1;
09
07
14
1/
00
01
1$
0%
0&
#460000
0!
02
03
1'
#470000
1!
12
13
0'
17
18
04
11
1&
#480000
0!
02
03
1'
#490000
1!
12
13
0'
19
07
14
10
01
1%
0&
#500000
0!
02
03
1'
#510000
1!
12
13
0'
17
1<
0:
08
04
11
1&
#520000
0!
02
03
1'
#530000
1!
12
13
0'
1=
0;
09
07
14
1.
0/
00
01
1#
0$
0%
0&
#540000
0!
02
03
1'
#550000
1!
12
13
0'
17
18
04
11
1&
#560000
0!
02
03
1'
#570000
1!
12
13
0'
19
07
14
10
01
1%
0&
#580000
0!
02
03
1'
#590000
1!
12
13
0'
17
1:
08
04
11
1&
#600000
0!
02
03
1'
#610000
1!
12
13
0'
1;
09
07
14
1/
00
01
1$
0%
0&
#620000
0!
02
03
1'
#630000
1!
12
13
0'
17
18
04
11
1&
#640000
0!
02
03
1'
#650000
1!
12
13
0'
19
07
14
10
01
1%
0&
#660000
0!
02
03
1'
#670000
1!
12
13
0'
17
0<
0:
08
04
11
1&
#680000
0!
02
03
1'
#690000
1!
12
13
0'
0=
0;
09
07
14
0.
0/
00
01
0#
0$
0%
0&
#700000
0!
02
03
1'
#710000
1!
12
13
0'
17
18
04
11
1&
#720000
0!
02
03
1'
#730000
1!
12
13
0'
19
07
14
10
01
1%
0&
#740000
0!
02
03
1'
#750000
1!
12
13
0'
17
1:
08
04
11
1&
#760000
0!
02
03
1'
#770000
1!
12
13
0'
1;
09
07
14
1/
00
01
1$
0%
0&
#780000
0!
02
03
1'
#790000
1!
12
13
0'
17
18
04
11
1&
#800000
0!
02
03
1'
#810000
1!
12
13
0'
19
07
14
10
01
1%
0&
#820000
0!
02
03
1'
#830000
1!
12
13
0'
17
1<
0:
08
04
11
1&
#840000
0!
02
03
1'
#850000
1!
12
13
0'
1=
0;
09
07
14
1.
0/
00
01
1#
0$
0%
0&
#860000
0!
02
03
1'
#870000
1!
12
13
0'
17
18
04
11
1&
#880000
0!
02
03
1'
#890000
1!
12
13
0'
19
07
14
10
01
1%
0&
#900000
0!
02
03
1'
#910000
1!
12
13
0'
17
1:
08
04
11
1&
#920000
0!
02
03
1'
#930000
1!
12
13
0'
1;
09
07
14
1/
00
01
1$
0%
0&
#940000
0!
02
03
1'
#950000
1!
12
13
0'
17
18
04
11
1&
#960000
0!
02
03
1'
#970000
1!
12
13
0'
19
07
14
10
01
1%
0&
#980000
0!
02
03
1'
#990000
1!
12
13
0'
17
0<
0:
08
04
11
1&
