simulation/qsim/pfs_rca.msim.vcd
$comment
	File created using the following command:
		vcd file pfs_rca.msim.vcd -direction
$end
$date
	Sat Mar 21 11:18:27 2026
$end
$version
	ModelSim Version 10.1d
$end
$timescale
	1ps
$end
$scope module pfs_rca_vlg_vec_tst $end
$var reg 1 ! cin $end
$var reg 4 " x [3:0] $end
$var reg 4 # y [3:0] $end
$var wire 1 $ co $end
$var wire 1 % s [3] $end
$var wire 1 & s [2] $end
$var wire 1 ' s [1] $end
$var wire 1 ( s [0] $end
$var wire 1 ) sampler $end
$scope module i1 $end
$var wire 1 * gnd $end
$var wire 1 + vcc $end
$var wire 1 , unknown $end
$var tri1 1 - devclrn $end
$var tri1 1 . devpor $end
$var tri1 1 / devoe $end
$var wire 1 0 co~output_o $end
$var wire 1 1 s[3]~output_o $end
$var wire 1 2 s[2]~output_o $end
$var wire 1 3 s[1]~output_o $end
$var wire 1 4 s[0]~output_o $end
$var wire 1 5 y[2]~input_o $end
$var wire 1 6 x[0]~input_o $end
$var wire 1 7 cin~input_o $end
$var wire 1 8 y[0]~input_o $end
$var wire 1 9 inst3|inst2|inst3~1_combout $end
$var wire 1 : x[1]~input_o $end
$var wire 1 ; y[1]~input_o $end
$var wire 1 < inst3|inst2|inst3~0_combout $end
$var wire 1 = inst2|inst2|inst3~0_combout $end
$var wire 1 > inst1|inst2|inst3~0_combout $end
$var wire 1 ? x[2]~input_o $end
$var wire 1 @ inst1|inst2|inst3~1_combout $end
$var wire 1 A x[3]~input_o $end
$var wire 1 B y[3]~input_o $end
$var wire 1 C inst|inst2|inst3~0_combout $end
$var wire 1 D inst|inst1~combout $end
$var wire 1 E inst1|inst1~0_combout $end
$var wire 1 F inst2|inst1~combout $end
$var wire 1 G inst3|inst1~0_combout $end
$upscope $end
$upscope $end
$enddefinitions $end
#0
$dumpvars
0!
b0 "
b0 #
0$
0(
0'
0&
0%
x)
0*
1+
x,
1-
1.
1/
00
01
02
03
04
05
06
07
08
09
0:
0;
0<
0=
0>
0?
0@
0A
0B
0C
0D
0E
0F
0G
$end
#20000
b10 "
b11 "
16
1:
0)
1G
1F
14
13
1(
1'
#40000
b111 "
b100 #
b101 #
b110 "
18
15
06
1?
1)
1@
1D
11
1%
#60000
b1110 "
b1100 "
b1000 "
b1001 "
16
0:
0?
1A
0)
19
0@
0G
0F
1E
0D
1C
04
03
12
01
10
0(
0'
1&
0%
1$
1F
1D
0C
13
11
00
1'
1%
0$
#80000
b1101 #
b1111 #
b1011 #
b1010 #
b1101 "
b1100 "
06
1?
08
1;
05
1B
1)
09
1=
0F
0D
1C
0=
1@
03
01
10
0'
0%
1$
1F
0E
0@
13
02
1'
0&
1E
1D
12
11
1&
1%
0D
01
0%
#100000
b1110 "
b1111 "
16
1:
0)
1=
1G
0F
1@
14
03
1(
0'
0E
02
0&
1D
11
1%
#120000
b111 "
b1110 #
b1111 #
b11 "
b10 "
18
15
06
0?
0A
1)
0@
1>
0D
01
0%
#140000
b0 "
b100 "
b101 "
16
0:
1?
0)
19
0=
1@
0G
1F
1E
1=
0>
04
13
12
0(
1'
1&
0F
0E
1>
03
02
0'
0&
1E
12
1&
#160000
b111 #
b101 #
b1101 "
b100 #
b1001 "
b1000 "
06
0?
1A
08
0;
0B
1)
09
0@
0=
0E
1F
0>
02
13
0&
1'
0F
1E
03
12
0'
1&
1D
0C
11
00
1%
0$
#180000
b1010 "
b1011 "
16
1:
0)
1G
1F
14
13
1(
1'
#200000
b0 #
b1000 #
b1001 #
b1111 "
b1110 "
06
1?
18
05
1B
1)
0D
1C
01
10
0%
1$
#220000
b110 "
b100 "
b0 "
b1 "
16
0:
0?
0A
0)
19
0G
0F
0E
1D
0C
04
03
02
11
00
0(
0'
0&
1%
0$
1F
13
1'
#240000
b1011 #
b1111 #
b1110 #
b101 "
b100 "
06
1?
08
1;
15
1)
09
1@
1=
0F
0=
1>
03
0'
1F
0D
1C
1E
0>
13
01
10
12
1'
0%
1$
1&
0E
02
0&
#260000
b110 "
b111 "
16
1:
0)
1=
1G
0F
1>
14
03
1(
0'
1E
12
1&
#280000
b110 #
b1111 "
b10 #
b11 #
b1011 "
b1010 "
06
0?
1A
18
05
0B
1)
0@
0>
1D
0C
11
00
1%
0$
#300000
b1000 "
b1100 "
b1101 "
16
0:
1?
0)
19
0=
1@
0G
1F
0E
1=
0@
04
13
02
0(
1'
0&
0F
1E
0D
1C
1@
03
12
01
10
0'
1&
0%
1$
0E
1D
0C
02
11
00
0&
1%
0$
0D
1C
01
10
0%
1$
#320000
b1 #
b1001 #
b101 "
b1000 #
b1 "
b0 "
06
0?
0A
08
0;
1B
1)
09
0@
0=
1E
1F
12
13
1&
1'
0F
1D
0C
0E
03
11
00
02
0'
1%
0$
0&
#340000
b10 "
b11 "
16
1:
0)
1G
1F
14
13
1(
1'
#360000
b1100 #
b1101 #
b111 "
b110 "
06
1?
18
15
1)
1@
0D
1C
01
10
0%
1$
#380000
b1110 "
b1100 "
b1000 "
b1001 "
16
0:
0?
1A
0)
19
0@
0G
0F
1E
1D
04
03
12
11
0(
0'
1&
1%
1F
0D
13
01
1'
0%
#400000
b1111 #
b111 #
b11 #
b10 #
b1101 "
b1100 "
06
1?
08
1;
05
0B
1)
09
1=
0F
1D
0C
0=
1@
03
11
00
0'
1%
0$
1F
0E
0@
13
02
1'
0&
1E
0D
1C
12
01
10
1&
0%
1$
1D
0C
11
00
1%
0$
#420000
b1110 "
b1111 "
16
1:
0)
1=
1G
0F
1@
14
03
1(
0'
0E
02
0&
0D
1C
01
10
0%
1$
#440000
b111 "
b110 #
b111 #
b11 "
b10 "
18
15
06
0?
0A
1)
0@
1>
1D
0C
11
00
1%
0$
#460000
b0 "
b100 "
b101 "
16
0:
1?
0)
19
0=
1@
0G
1F
1E
1=
0>
04
13
12
0(
1'
1&
0F
0E
1>
03
02
0'
0&
1E
12
1&
#480000
b101 #
b1101 #
b1101 "
b1100 #
b1001 "
b1000 "
06
0?
1A
08
0;
1B
1)
09
0@
0=
0E
1C
1F
0>
02
10
13
0&
1$
1'
0F
1E
03
12
0'
1&
0D
01
0%
#500000
b1010 "
b1011 "
16
1:
0)
1G
1F
14
13
1(
1'
#520000
b1000 #
b0 #
b1 #
b1111 "
b1110 "
06
1?
18
05
0B
1)
1D
0C
11
00
1%
0$
#540000
b110 "
b100 "
b0 "
b1 "
16
0:
0?
0A
0)
19
0G
0F
0E
0D
04
03
02
01
0(
0'
0&
0%
1F
13
1'
#560000
b11 #
b111 #
b110 #
b101 "
b100 "
06
1?
08
1;
15
1)
09
1@
1=
0F
0=
1>
03
0'
1F
1D
1E
0>
13
11
12
1'
1%
1&
0E
02
0&
#580000
b110 "
b111 "
16
1:
0)
1=
1G
0F
1>
14
03
1(
0'
1E
12
1&
#600000
b1110 #
b1111 "
b1010 #
b1011 #
b1011 "
b1010 "
06
0?
1A
18
05
1B
1)
0@
0>
1C
10
1$
0D
01
0%
#620000
b1000 "
b1100 "
b1101 "
16
0:
1?
0)
19
0=
1@
0G
1F
0E
1=
0@
04
13
02
0(
1'
0&
0F
1E
1D
1@
03
12
11
0'
1&
1%
0E
0D
02
01
0&
0%
1D
11
1%
#640000
b1001 #
b1 #
b101 "
b0 #
b1 "
b0 "
06
0?
0A
08
0;
0B
1)
09
0@
0=
1E
0C
1F
12
00
13
1&
0$
1'
0F
0D
0E
03
01
02
0'
0%
0&
#660000
b10 "
b11 "
16
1:
0)
1G
1F
14
13
1(
1'
#680000
b100 #
b101 #
b111 "
b110 "
06
1?
18
15
1)
1@
1D
11
1%
#700000
b1110 "
b1100 "
b1000 "
b1001 "
16
0:
0?
1A
0)
19
0@
0G
0F
1E
0D
1C
04
03
12
01
10
0(
0'
1&
0%
1$
1F
1D
0C
13
11
00
1'
1%
0$
#720000
b111 #
b1111 #
b1011 #
b1010 #
b1101 "
b1100 "
06
1?
08
1;
05
1B
1)
09
1=
0F
0D
1C
0=
1@
03
01
10
0'
0%
1$
1F
0E
0@
13
02
1'
0&
1E
1D
12
11
1&
1%
0D
01
0%
#740000
b1110 "
b1111 "
16
1:
0)
1=
1G
0F
1@
14
03
1(
0'
0E
02
0&
1D
11
1%
#760000
b111 "
b1110 #
b1111 #
b11 "
b10 "
18
15
06
0?
0A
1)
0@
1>
0D
01
0%
#780000
b0 "
b100 "
b101 "
16
0:
1?
0)
19
0=
1@
0G
1F
1E
1=
0>
04
13
12
0(
1'
1&
0F
0E
1>
03
02
0'
0&
1E
12
1&
#800000
b1101 #
b101 #
b1101 "
b100 #
b1001 "
b1000 "
06
0?
1A
08
0;
0B
1)
09
0@
0=
0E
1F
0>
02
13
0&
1'
0F
1E
03
12
0'
1&
1D
0C
11
00
1%
0$
#820000
b1010 "
b1011 "
16
1:
0)
1G
1F
14
13
1(
1'
#840000
b0 #
b1000 #
b1001 #
b1111 "
b1110 "
06
1?
18
05
1B
1)
0D
1C
01
10
0%
1$
#860000
b110 "
b100 "
b0 "
b1 "
16
0:
0?
0A
0)
19
0G
0F
0E
1D
0C
04
03
02
11
00
0(
0'
0&
1%
0$
1F
13
1'
#880000
b1011 #
b1111 #
b1110 #
b101 "
b100 "
06
1?
08
1;
15
1)
09
1@
1=
0F
0=
1>
03
0'
1F
0D
1C
1E
0>
13
01
10
12
1'
0%
1$
1&
0E
02
0&
#900000
b110 "
b111 "
16
1:
0)
1=
1G
0F
1>
14
03
1(
0'
1E
12
1&
#920000
b110 #
b1111 "
b10 #
b11 #
b1011 "
b1010 "
06
0?
1A
18
05
0B
1)
0@
0>
1D
0C
11
00
1%
0$
#940000
b1000 "
b1100 "
b1101 "
16
0:
1?
0)
19
0=
1@
0G
1F
0E
1=
0@
04
13
02
0(
1'
0&
0F
1E
0D
1C
1@
03
12
01
10
0'
1&
0%
1$
0E
1D
0C
02
11
00
0&
1%
0$
0D
1C
01
10
0%
1$
#960000
b1 #
b1001 #
b101 "
b1000 #
b1 "
b0 "
06
0?
0A
08
0;
1B
1)
09
0@
0=
1E
1F
12
13
1&
1'
0F
1D
0C
0E
03
11
00
02
0'
1%
0$
0&
#980000
b10 "
b11 "
16
1:
0)
1G
1F
14
13
1(
1'
