simulation/qsim/pfs_display.msim.vcd
$comment
	File created using the following command:
		vcd file pfs_display.msim.vcd -direction
$end
$date
	Mon Apr 13 19:11:52 2026
$end
$version
	ModelSim Version 10.1d
$end
$timescale
	1ps
$end
$scope module pfs_display_vlg_vec_tst $end
$var reg 4 ! e [3:0] $end
$var wire 1 " s0 $end
$var wire 1 # s1 $end
$var wire 1 $ s2 $end
$var wire 1 % s3 $end
$var wire 1 & s4 $end
$var wire 1 ' s5 $end
$var wire 1 ( s6 $end
$var wire 1 ) sampler $end
$scope module i1 $end
$var wire 1 * gnd $end
$var wire 1 + vcc $end
$var wire 1 , unknown $end
$var tri1 1 - devclrn $end
$var tri1 1 . devpor $end
$var tri1 1 / devoe $end
$var wire 1 0 s0~output_o $end
$var wire 1 1 s1~output_o $end
$var wire 1 2 s2~output_o $end
$var wire 1 3 s3~output_o $end
$var wire 1 4 s4~output_o $end
$var wire 1 5 s5~output_o $end
$var wire 1 6 s6~output_o $end
$var wire 1 7 e[1]~input_o $end
$var wire 1 8 e[3]~input_o $end
$var wire 1 9 e[2]~input_o $end
$var wire 1 : e[0]~input_o $end
$var wire 1 ; inst9|inst3|inst~0_combout $end
$var wire 1 < inst8|inst3|inst~0_combout $end
$var wire 1 = inst7|inst3|inst~0_combout $end
$var wire 1 > inst6|inst3|inst~0_combout $end
$var wire 1 ? inst5|inst3|inst~0_combout $end
$var wire 1 @ inst4|inst3|inst~0_combout $end
$var wire 1 A inst|inst3|inst~0_combout $end
$upscope $end
$upscope $end
$enddefinitions $end
#0
$dumpvars
b0 !
1"
1#
1$
1%
1&
1'
0(
x)
0*
1+
x,
1-
1.
1/
10
11
12
13
14
15
06
07
08
09
0:
1;
0<
1=
1>
1?
1@
0A
$end
#20000
b1 !
1:
0)
0@
0?
0>
0;
05
04
03
00
0'
0&
0%
0"
#40000
b11 !
b10 !
0:
17
1)
1A
1?
1>
0=
1;
16
14
13
02
10
1(
1&
1%
0$
1"
#60000
b11 !
1:
0)
0?
1=
04
12
0&
1$
#80000
b111 !
b101 !
b100 !
0:
07
19
1)
1<
1@
0>
0;
01
15
03
00
0#
1'
0%
0"
#100000
b101 !
1:
0)
0<
1>
1;
11
13
10
1#
1%
1"
#120000
b111 !
b110 !
0:
17
1)
1?
14
1&
#140000
b111 !
1:
0)
1<
0A
0@
0?
0>
01
06
05
04
03
0#
0(
0'
0&
0%
#160000
b1111 !
b1011 !
b1001 !
b1000 !
0:
07
09
18
1)
0<
1A
1@
1?
1>
11
16
15
14
13
1#
1(
1'
1&
1%
#180000
b1001 !
1:
0)
0?
04
0&
#200000
b1011 !
b1010 !
0:
17
1)
1?
0>
14
03
1&
0%
#220000
b1011 !
1:
0)
1<
1>
0;
01
13
00
0#
1%
0"
#240000
b1111 !
b1101 !
b1100 !
0:
07
19
1)
0A
0=
1;
06
02
10
0(
0$
1"
#260000
b1101 !
1:
0)
0<
1A
0@
1=
0;
11
16
05
12
00
1#
1(
0'
1$
0"
#280000
b1111 !
b1110 !
0:
17
1)
1<
1@
0=
1;
01
15
02
10
0#
1'
0$
1"
#300000
b1111 !
1:
0)
0>
03
0%
#320000
b111 !
b11 !
b1 !
b0 !
0:
07
09
08
1)
0<
0A
1>
1=
11
06
13
12
1#
0(
1%
1$
#340000
b1 !
1:
0)
0@
0?
0>
0;
05
04
03
00
0'
0&
0%
0"
#360000
b11 !
b10 !
0:
17
1)
1A
1?
1>
0=
1;
16
14
13
02
10
1(
1&
1%
0$
1"
#380000
b11 !
1:
0)
0?
1=
04
12
0&
1$
#400000
b111 !
b101 !
b100 !
0:
07
19
1)
1<
1@
0>
0;
01
15
03
00
0#
1'
0%
0"
#420000
b101 !
1:
0)
0<
1>
1;
11
13
10
1#
1%
1"
#440000
b111 !
b110 !
0:
17
1)
1?
14
1&
#460000
b111 !
1:
0)
1<
0A
0@
0?
0>
01
06
05
04
03
0#
0(
0'
0&
0%
#480000
b1111 !
b1011 !
b1001 !
b1000 !
0:
07
09
18
1)
0<
1A
1@
1?
1>
11
16
15
14
13
1#
1(
1'
1&
1%
#500000
b1001 !
1:
0)
0?
04
0&
#520000
b1011 !
b1010 !
0:
17
1)
1?
0>
14
03
1&
0%
#540000
b1011 !
1:
0)
1<
1>
0;
01
13
00
0#
1%
0"
#560000
b1111 !
b1101 !
b1100 !
0:
07
19
1)
0A
0=
1;
06
02
10
0(
0$
1"
#580000
b1101 !
1:
0)
0<
1A
0@
1=
0;
11
16
05
12
00
1#
1(
0'
1$
0"
#600000
b1111 !
b1110 !
0:
17
1)
1<
1@
0=
1;
01
15
02
10
0#
1'
0$
1"
#620000
b1111 !
1:
0)
0>
03
0%
#640000
b111 !
b11 !
b1 !
b0 !
0:
07
09
08
1)
0<
0A
1>
1=
11
06
13
12
1#
0(
1%
1$
#660000
b1 !
1:
0)
0@
0?
0>
0;
05
04
03
00
0'
0&
0%
0"
#680000
b11 !
b10 !
0:
17
1)
1A
1?
1>
0=
1;
16
14
13
02
10
1(
1&
1%
0$
1"
#700000
b11 !
1:
0)
0?
1=
04
12
0&
1$
#720000
b111 !
b101 !
b100 !
0:
07
19
1)
1<
1@
0>
0;
01
15
03
00
0#
1'
0%
0"
#740000
b101 !
1:
0)
0<
1>
1;
11
13
10
1#
1%
1"
#760000
b111 !
b110 !
0:
17
1)
1?
14
1&
#780000
b111 !
1:
0)
1<
0A
0@
0?
0>
01
06
05
04
03
0#
0(
0'
0&
0%
#800000
b1111 !
b1011 !
b1001 !
b1000 !
0:
07
09
18
1)
0<
1A
1@
1?
1>
11
16
15
14
13
1#
1(
1'
1&
1%
#820000
b1001 !
1:
0)
0?
04
0&
#840000
b1011 !
b1010 !
0:
17
1)
1?
0>
14
03
1&
0%
#860000
b1011 !
1:
0)
1<
1>
0;
01
13
00
0#
1%
0"
#880000
b1111 !
b1101 !
b1100 !
0:
07
19
1)
0A
0=
1;
06
02
10
0(
0$
1"
#900000
b1101 !
1:
0)
0<
1A
0@
1=
0;
11
16
05
12
00
1#
1(
0'
1$
0"
#920000
b1111 !
b1110 !
0:
17
1)
1<
1@
0=
1;
01
15
02
10
0#
1'
0$
1"
#940000
b1111 !
1:
0)
0>
03
0%
#960000
b111 !
b11 !
b1 !
b0 !
0:
07
09
08
1)
0<
0A
1>
1=
11
06
13
12
1#
0(
1%
1$
#980000
b1 !
1:
0)
0@
0?
0>
0;
05
04
03
00
0'
0&
0%
0"
