simulation/qsim/pfs_full_adder.msim.vcd
$comment
	File created using the following command:
		vcd file pfs_full_adder.msim.vcd -direction
$end
$date
	Sat Mar 07 14:11:05 2026
$end
$version
	ModelSim Version 10.1d
$end
$timescale
	1ps
$end
$scope module pfs_full_adder_vlg_vec_tst $end
$var reg 1 ! x $end
$var reg 1 " y $end
$var reg 1 # z $end
$var wire 1 $ cout $end
$var wire 1 % sum $end
$var wire 1 & sampler $end
$scope module i1 $end
$var wire 1 ' gnd $end
$var wire 1 ( vcc $end
$var wire 1 ) unknown $end
$var tri1 1 * devclrn $end
$var tri1 1 + devpor $end
$var tri1 1 , devoe $end
$var wire 1 - sum~output_o $end
$var wire 1 . cout~output_o $end
$var wire 1 / x~input_o $end
$var wire 1 0 z~input_o $end
$var wire 1 1 y~input_o $end
$var wire 1 2 inst1|inst~0_combout $end
$var wire 1 3 inst2~0_combout $end
$upscope $end
$upscope $end
$enddefinitions $end
#0
$dumpvars
0!
0"
0#
0$
0%
x&
0'
1(
x)
1*
1+
1,
0-
0.
0/
00
01
02
03
$end
#50000
1!
1/
0&
12
1-
1%
#100000
1"
0!
11
0/
1&
#150000
1!
1/
0&
13
02
1.
0-
1$
0%
#200000
1#
0"
0!
10
01
0/
1&
03
12
0.
1-
0$
1%
#250000
1!
1/
0&
13
02
1.
0-
1$
0%
#300000
1"
0!
11
0/
1&
#350000
1!
1/
0&
12
1-
1%
#400000
0#
0"
0!
00
01
0/
1&
03
02
0.
0-
0$
0%
#450000
1!
1/
0&
12
1-
1%
#500000
1"
0!
11
0/
1&
#550000
1!
1/
0&
13
02
1.
0-
1$
0%
#600000
1#
0"
0!
10
01
0/
1&
03
12
0.
1-
0$
1%
#650000
1!
1/
0&
13
02
1.
0-
1$
0%
#700000
1"
0!
11
0/
1&
#750000
1!
1/
0&
12
1-
1%
#800000
0#
0"
0!
00
01
0/
1&
03
02
0.
0-
0$
0%
#850000
1!
1/
0&
12
1-
1%
#900000
1"
0!
11
0/
1&
#950000
1!
1/
0&
13
02
1.
0-
1$
0%
