simulation/qsim/pfs_mux2x1_8bit.msim.vcd
$comment
	File created using the following command:
		vcd file pfs_mux2x1_8bit.msim.vcd -direction
$end
$date
	Sat Mar 21 18:22:05 2026
$end
$version
	ModelSim Version 10.1d
$end
$timescale
	1ps
$end
$scope module pfs_mux2x1_8bit_vlg_vec_tst $end
$var reg 8 ! a [0:7] $end
$var reg 8 " b [0:7] $end
$var reg 1 # sel $end
$var wire 1 $ out [0] $end
$var wire 1 % out [1] $end
$var wire 1 & out [2] $end
$var wire 1 ' out [3] $end
$var wire 1 ( out [4] $end
$var wire 1 ) out [5] $end
$var wire 1 * out [6] $end
$var wire 1 + out [7] $end
$var wire 1 , sampler $end
$scope module i1 $end
$var wire 1 - gnd $end
$var wire 1 . vcc $end
$var wire 1 / unknown $end
$var tri1 1 0 devclrn $end
$var tri1 1 1 devpor $end
$var tri1 1 2 devoe $end
$var wire 1 3 out[0]~output_o $end
$var wire 1 4 out[1]~output_o $end
$var wire 1 5 out[2]~output_o $end
$var wire 1 6 out[3]~output_o $end
$var wire 1 7 out[4]~output_o $end
$var wire 1 8 out[5]~output_o $end
$var wire 1 9 out[6]~output_o $end
$var wire 1 : out[7]~output_o $end
$var wire 1 ; b[0]~input_o $end
$var wire 1 < a[0]~input_o $end
$var wire 1 = sel~input_o $end
$var wire 1 > inst|inst~0_combout $end
$var wire 1 ? a[1]~input_o $end
$var wire 1 @ b[1]~input_o $end
$var wire 1 A inst1|inst~0_combout $end
$var wire 1 B a[2]~input_o $end
$var wire 1 C b[2]~input_o $end
$var wire 1 D inst2|inst~0_combout $end
$var wire 1 E a[3]~input_o $end
$var wire 1 F b[3]~input_o $end
$var wire 1 G inst3|inst~0_combout $end
$var wire 1 H a[4]~input_o $end
$var wire 1 I b[4]~input_o $end
$var wire 1 J inst4|inst~0_combout $end
$var wire 1 K a[5]~input_o $end
$var wire 1 L b[5]~input_o $end
$var wire 1 M inst5|inst~0_combout $end
$var wire 1 N b[6]~input_o $end
$var wire 1 O a[6]~input_o $end
$var wire 1 P inst6|inst~0_combout $end
$var wire 1 Q a[7]~input_o $end
$var wire 1 R b[7]~input_o $end
$var wire 1 S inst7|inst~0_combout $end
$upscope $end
$upscope $end
$enddefinitions $end
#0
$dumpvars
b0 !
b0 "
0#
0+
0*
0)
0(
0'
0&
0%
0$
x,
0-
1.
x/
10
11
12
03
04
05
06
07
08
09
0:
0;
0<
0=
0>
0?
0@
0A
0B
0C
0D
0E
0F
0G
0H
0I
0J
0K
0L
0M
0N
0O
0P
0Q
0R
0S
$end
#10000
b1 !
b1 "
b11 "
1R
1N
1Q
0,
1S
1:
1+
#20000
b11 !
b111 "
b10 !
b110 "
0R
1L
0Q
1O
1,
0S
1P
0:
19
0+
1*
#30000
b1110 "
b1100 "
b1000 "
b11 !
b1001 "
1Q
1R
0N
0L
1I
0,
1S
1:
1+
#40000
b111 !
b101 !
b1101 "
b100 !
b1100 "
0R
1L
0Q
0O
1K
1,
0S
1M
0P
0:
18
09
0+
1)
0*
#50000
1#
b1110 "
b101 !
b1111 "
1=
1Q
1R
1N
0,
1S
1P
1J
1:
19
17
1+
1*
1(
#60000
b11111 "
b10111 "
b111 !
b10011 "
b110 !
b10010 "
0Q
1O
0R
0L
0I
1F
1,
0S
0M
0J
1G
0:
08
07
16
0+
0)
0(
1'
#70000
b10000 "
b10100 "
b111 !
b10101 "
1Q
1R
0N
1L
0,
1S
0P
1M
1:
09
18
1+
0*
1)
#80000
b1111 !
b1011 !
b11101 "
b1001 !
b11001 "
b1000 !
b11000 "
0R
0L
1I
0Q
0O
0K
1H
1,
0S
0M
1J
0:
08
17
0+
0)
1(
#90000
b11010 "
b1001 !
b11011 "
1Q
1R
1N
0,
1S
1P
1:
19
1+
1*
#100000
0#
b1011 !
b11111 "
b1010 !
b11110 "
0=
0R
1L
0Q
1O
1,
0S
0G
0:
06
0+
0'
#110000
b111110 "
b101110 "
b100110 "
b100100 "
b100000 "
b1011 !
b100001 "
1Q
1R
0N
0L
0I
0F
1C
0,
1S
1:
1+
#120000
b1111 !
b1101 !
b100101 "
b1100 !
b100100 "
0R
1L
0Q
0O
1K
1,
0S
1M
0P
0:
18
09
0+
1)
0*
#130000
b100110 "
b1101 !
b100111 "
1Q
1R
1N
0,
1S
1:
1+
#140000
b101111 "
b1111 !
b101011 "
b1110 !
b101010 "
0Q
1O
0R
0L
1I
1,
0S
1P
0:
19
0+
1*
#150000
1#
b101000 "
b101100 "
b1111 !
b101101 "
1=
1Q
1R
0N
1L
0,
1S
0P
1D
1:
09
15
1+
0*
1&
#160000
b11111 !
b10111 !
b111101 "
b10011 !
b110101 "
b10001 !
b110001 "
b10000 !
b110000 "
0R
0L
0I
1F
0Q
0O
0K
0H
1E
1,
0S
0M
0J
1G
0:
08
07
16
0+
0)
0(
1'
#170000
b110010 "
b10001 !
b110011 "
1Q
1R
1N
0,
1S
1P
1:
19
1+
1*
#180000
b10011 !
b110111 "
b10010 !
b110110 "
0R
1L
0Q
1O
1,
0S
1M
0:
18
0+
1)
#190000
b111110 "
b111100 "
b111000 "
b10011 !
b111001 "
1Q
1R
0N
0L
1I
0,
1S
0P
0M
1J
1:
09
08
17
1+
0*
0)
1(
#200000
0#
b10111 !
b10101 !
b111101 "
b10100 !
b111100 "
0=
0R
1L
0Q
0O
1K
1,
0S
1M
0J
0D
0:
18
07
05
0+
1)
0(
0&
#210000
b111110 "
b10101 !
b111111 "
1Q
1R
1N
0,
1S
1:
1+
#220000
b1111111 "
b1011111 "
b1001111 "
b1000111 "
b10111 !
b1000011 "
b10110 !
b1000010 "
0Q
1O
0R
0L
0I
0F
0C
1@
1,
0S
1P
0:
19
0+
1*
#230000
b1000000 "
b1000100 "
b10111 !
b1000101 "
1Q
1R
0N
1L
0,
1S
1:
1+
#240000
b11111 !
b11011 !
b1001101 "
b11001 !
b1001001 "
b11000 !
b1001000 "
0R
0L
1I
0Q
0O
0K
1H
1,
0S
0M
1J
0P
0:
08
17
09
0+
0)
1(
0*
#250000
1#
b1001010 "
b11001 !
b1001011 "
1=
1Q
1R
1N
0,
1S
1P
0G
1A
1:
19
06
14
1+
1*
0'
1%
#260000
b11011 !
b1001111 "
b11010 !
b1001110 "
0R
1L
0Q
1O
1,
0S
1M
0:
18
0+
1)
#270000
b1011110 "
b1010110 "
b1010100 "
b1010000 "
b11011 !
b1010001 "
1Q
1R
0N
0L
0I
1F
0,
1S
0P
0M
0J
1G
1:
09
08
07
16
1+
0*
0)
0(
1'
#280000
b11111 !
b11101 !
b1010101 "
b11100 !
b1010100 "
0R
1L
0Q
0O
1K
1,
0S
1M
0:
18
0+
1)
#290000
b1010110 "
b11101 !
b1010111 "
1Q
1R
1N
0,
1S
1P
1:
19
1+
1*
#300000
0#
b1011111 "
b11111 !
b1011011 "
b11110 !
b1011010 "
0=
0Q
1O
0R
0L
1I
1,
0S
1J
0A
0:
17
04
0+
1(
0%
#310000
b1011000 "
b1011100 "
b11111 !
b1011101 "
1Q
1R
0N
1L
0,
1S
1:
1+
#320000
b111111 !
b101111 !
b1111101 "
b100111 !
b1101101 "
b100011 !
b1100101 "
b100001 !
b1100001 "
b100000 !
b1100000 "
0R
0L
0I
0F
1C
0Q
0O
0K
0H
0E
1B
1,
0S
0M
0J
0G
1D
0P
0:
08
07
06
15
09
0+
0)
0(
0'
1&
0*
#330000
b1100010 "
b100001 !
b1100011 "
1Q
1R
1N
0,
1S
1:
1+
#340000
b100011 !
b1100111 "
b100010 !
b1100110 "
0R
1L
0Q
1O
1,
0S
1P
0:
19
0+
1*
#350000
1#
b1101110 "
b1101100 "
b1101000 "
b100011 !
b1101001 "
1=
1Q
1R
0N
0L
1I
0,
1S
0P
1J
1A
1:
09
17
14
1+
0*
1(
1%
#360000
b100111 !
b100101 !
b1101101 "
b100100 !
b1101100 "
0R
1L
0Q
0O
1K
1,
0S
1M
0:
18
0+
1)
#370000
b1101110 "
b100101 !
b1101111 "
1Q
1R
1N
0,
1S
1P
1:
19
1+
1*
#380000
b1111111 "
b1110111 "
b100111 !
b1110011 "
b100110 !
b1110010 "
0Q
1O
0R
0L
0I
1F
1,
0S
0M
0J
1G
0:
08
07
16
0+
0)
0(
1'
#390000
b1110000 "
b1110100 "
b100111 !
b1110101 "
1Q
1R
0N
1L
0,
1S
0P
1M
1:
09
18
1+
0*
1)
#400000
b101111 !
0#
b101011 !
b1111101 "
b101001 !
b1111001 "
b101000 !
b1111000 "
0=
0R
0L
1I
0Q
0O
0K
1H
1,
0S
0M
1J
0G
0A
0:
08
17
06
04
0+
0)
1(
0'
0%
#410000
b1111010 "
b101001 !
b1111011 "
1Q
1R
1N
0,
1S
1:
1+
#420000
b101011 !
b1111111 "
b101010 !
b1111110 "
0R
1L
0Q
1O
1,
0S
1P
0:
19
0+
1*
#430000
b11111110 "
b10111110 "
b10011110 "
b10001110 "
b10000110 "
b10000100 "
b10000000 "
b101011 !
b10000001 "
1Q
1R
0N
0L
0I
0F
0C
0@
1;
0,
1S
1:
1+
#440000
b101111 !
b101101 !
b10000101 "
b101100 !
b10000100 "
0R
1L
0Q
0O
1K
1,
0S
1M
0P
0:
18
09
0+
1)
0*
#450000
1#
b10000110 "
b101101 !
b10000111 "
1=
1Q
1R
1N
0,
1S
1P
0J
0D
1>
1:
19
07
05
13
1+
1*
0(
0&
1$
#460000
b10001111 "
b101111 !
b10001011 "
b101110 !
b10001010 "
0Q
1O
0R
0L
1I
1,
0S
0M
1J
0:
08
17
0+
0)
1(
#470000
b10001000 "
b10001100 "
b101111 !
b10001101 "
1Q
1R
0N
1L
0,
1S
0P
1M
1:
09
18
1+
0*
1)
#480000
b111111 !
b110111 !
b10011101 "
b110011 !
b10010101 "
b110001 !
b10010001 "
b110000 !
b10010000 "
0R
0L
0I
1F
0Q
0O
0K
0H
1E
1,
0S
0M
0J
1G
0:
08
07
16
0+
0)
0(
1'
#490000
b10010010 "
b110001 !
b10010011 "
1Q
1R
1N
0,
1S
1P
1:
19
1+
1*
#500000
0#
b110011 !
b10010111 "
b110010 !
b10010110 "
0=
0R
1L
0Q
1O
1,
0S
1D
0>
0:
15
03
0+
1&
0$
#510000
b10011110 "
b10011100 "
b10011000 "
b110011 !
b10011001 "
1Q
1R
0N
0L
1I
0,
1S
1:
1+
#520000
b110111 !
b110101 !
b10011101 "
b110100 !
b10011100 "
0R
1L
0Q
0O
1K
1,
0S
1M
0P
0:
18
09
0+
1)
0*
#530000
b10011110 "
b110101 !
b10011111 "
1Q
1R
1N
0,
1S
1:
1+
#540000
b10111111 "
b10101111 "
b10100111 "
b110111 !
b10100011 "
b110110 !
b10100010 "
0Q
1O
0R
0L
0I
0F
1C
1,
0S
1P
0:
19
0+
1*
#550000
1#
b10100000 "
b10100100 "
b110111 !
b10100101 "
1=
1Q
1R
0N
1L
0,
1S
0P
0G
1>
1:
09
06
13
1+
0*
0'
1$
#560000
b111111 !
b111011 !
b10101101 "
b111001 !
b10101001 "
b111000 !
b10101000 "
0R
0L
1I
0Q
0O
0K
1H
1,
0S
0M
1J
0:
08
17
0+
0)
1(
#570000
b10101010 "
b111001 !
b10101011 "
1Q
1R
1N
0,
1S
1P
1:
19
1+
1*
#580000
b111011 !
b10101111 "
b111010 !
b10101110 "
0R
1L
0Q
1O
1,
0S
1M
0:
18
0+
1)
#590000
b10111110 "
b10110110 "
b10110100 "
b10110000 "
b111011 !
b10110001 "
1Q
1R
0N
0L
0I
1F
0,
1S
0P
0M
0J
1G
1:
09
08
07
16
1+
0*
0)
0(
1'
#600000
0#
b111111 !
b111101 !
b10110101 "
b111100 !
b10110100 "
0=
0R
1L
0Q
0O
1K
1,
0S
1M
1J
0>
0:
18
17
03
0+
1)
1(
0$
#610000
b10110110 "
b111101 !
b10110111 "
1Q
1R
1N
0,
1S
1:
1+
#620000
b10111111 "
b111111 !
b10111011 "
b111110 !
b10111010 "
0Q
1O
0R
0L
1I
1,
0S
1P
0:
19
0+
1*
#630000
b10111000 "
b10111100 "
b111111 !
b10111101 "
1Q
1R
0N
1L
0,
1S
1:
1+
#640000
b1111111 !
b1011111 !
b11111101 "
b1001111 !
b11011101 "
b1000111 !
b11001101 "
b1000011 !
b11000101 "
b1000001 !
b11000001 "
b1000000 !
b11000000 "
0R
0L
0I
0F
0C
1@
0Q
0O
0K
0H
0E
0B
1?
1,
0S
0M
0J
0G
0D
1A
0P
0:
08
07
06
05
14
09
0+
0)
0(
0'
0&
1%
0*
#650000
1#
b11000010 "
b1000001 !
b11000011 "
1=
1Q
1R
1N
0,
1S
1P
1>
1:
19
13
1+
1*
1$
#660000
b1000011 !
b11000111 "
b1000010 !
b11000110 "
0R
1L
0Q
1O
1,
0S
1M
0:
18
0+
1)
#670000
b11001110 "
b11001100 "
b11001000 "
b1000011 !
b11001001 "
1Q
1R
0N
0L
1I
0,
1S
0P
0M
1J
1:
09
08
17
1+
0*
0)
1(
#680000
b1000111 !
b1000101 !
b11001101 "
b1000100 !
b11001100 "
0R
1L
0Q
0O
1K
1,
0S
1M
0:
18
0+
1)
#690000
b11001110 "
b1000101 !
b11001111 "
1Q
1R
1N
0,
1S
1P
1:
19
1+
1*
#700000
b11011111 "
0#
b11010111 "
b1000111 !
b11010011 "
b1000110 !
b11010010 "
0=
0Q
1O
0R
0L
0I
1F
1,
0S
0J
0>
0:
07
03
0+
0(
0$
#710000
b11010000 "
b11010100 "
b1000111 !
b11010101 "
1Q
1R
0N
1L
0,
1S
1:
1+
#720000
b1001111 !
b1001011 !
b11011101 "
b1001001 !
b11011001 "
b1001000 !
b11011000 "
0R
0L
1I
0Q
0O
0K
1H
1,
0S
0M
1J
0P
0:
08
17
09
0+
0)
1(
0*
#730000
b11011010 "
b1001001 !
b11011011 "
1Q
1R
1N
0,
1S
1:
1+
#740000
b1001011 !
b11011111 "
b1001010 !
b11011110 "
0R
1L
0Q
1O
1,
0S
1P
0:
19
0+
1*
#750000
b11111110 "
b11101110 "
1#
b11100110 "
b11100100 "
b11100000 "
b1001011 !
b11100001 "
1=
1Q
1R
0N
0L
0I
0F
1C
0,
1S
0P
0J
1D
1>
1:
09
07
15
13
1+
0*
0(
1&
1$
#760000
b1001111 !
b1001101 !
b11100101 "
b1001100 !
b11100100 "
0R
1L
0Q
0O
1K
1,
0S
1M
0:
18
0+
1)
#770000
b11100110 "
b1001101 !
b11100111 "
1Q
1R
1N
0,
1S
1P
1:
19
1+
1*
#780000
b11101111 "
b1001111 !
b11101011 "
b1001110 !
b11101010 "
0Q
1O
0R
0L
1I
1,
0S
0M
1J
0:
08
17
0+
0)
1(
#790000
b11101000 "
b11101100 "
b1001111 !
b11101101 "
1Q
1R
0N
1L
0,
1S
0P
1M
1:
09
18
1+
0*
1)
#800000
b1011111 !
b1010111 !
b11111101 "
0#
b1010011 !
b11110101 "
b1010001 !
b11110001 "
b1010000 !
b11110000 "
0R
0L
0I
1F
0Q
0O
0K
0H
1E
0=
1,
0S
0M
0J
1G
0D
0>
0:
08
07
16
05
03
0+
0)
0(
1'
0&
0$
#810000
b11110010 "
b1010001 !
b11110011 "
1Q
1R
1N
0,
1S
1:
1+
#820000
b1010011 !
b11110111 "
b1010010 !
b11110110 "
0R
1L
0Q
1O
1,
0S
1P
0:
19
0+
1*
#830000
b11111110 "
b11111100 "
b11111000 "
b1010011 !
b11111001 "
1Q
1R
0N
0L
1I
0,
1S
1:
1+
#840000
b1010111 !
b1010101 !
b11111101 "
b1010100 !
b11111100 "
0R
1L
0Q
0O
1K
1,
0S
1M
0P
0:
18
09
0+
1)
0*
#850000
1#
b11111110 "
b1010101 !
b11111111 "
1=
1Q
1R
1N
0,
1S
1P
1J
1D
1>
1:
19
17
15
13
1+
1*
1(
1&
1$
#860000
b1111111 "
b111111 "
b11111 "
b1111 "
b111 "
b1010111 !
b11 "
b1010110 !
b10 "
0Q
1O
0R
0L
0I
0F
0C
0@
0;
1,
0S
0M
0J
0G
0D
0A
0>
0:
08
07
06
05
04
03
0+
0)
0(
0'
0&
0%
0$
#870000
b0 "
b100 "
b1010111 !
b101 "
1Q
1R
0N
1L
0,
1S
0P
1M
1:
09
18
1+
0*
1)
#880000
b1011111 !
b1011011 !
b1101 "
b1011001 !
b1001 "
b1011000 !
b1000 "
0R
0L
1I
0Q
0O
0K
1H
1,
0S
0M
1J
0:
08
17
0+
0)
1(
#890000
b1010 "
b1011001 !
b1011 "
1Q
1R
1N
0,
1S
1P
1:
19
1+
1*
#900000
0#
b1011011 !
b1111 "
b1011010 !
b1110 "
0=
0R
1L
0Q
1O
1,
0S
1G
1A
0:
16
14
0+
1'
1%
#910000
b11110 "
b10110 "
b10100 "
b10000 "
b1011011 !
b10001 "
1Q
1R
0N
0L
0I
1F
0,
1S
1:
1+
#920000
b1011111 !
b1011101 !
b10101 "
b1011100 !
b10100 "
0R
1L
0Q
0O
1K
1,
0S
1M
0P
0:
18
09
0+
1)
0*
#930000
b10110 "
b1011101 !
b10111 "
1Q
1R
1N
0,
1S
1:
1+
#940000
b11111 "
b1011111 !
b11011 "
b1011110 !
b11010 "
0Q
1O
0R
0L
1I
1,
0S
1P
0:
19
0+
1*
#950000
1#
b11000 "
b11100 "
b1011111 !
b11101 "
1=
1Q
1R
0N
1L
0,
1S
0P
0A
1:
09
04
1+
0*
0%
#960000
b1111111 !
b1101111 !
b111101 "
b1100111 !
b101101 "
b1100011 !
b100101 "
b1100001 !
b100001 "
b1100000 !
b100000 "
0R
0L
0I
0F
1C
0Q
0O
0K
0H
0E
1B
1,
0S
0M
0J
0G
1D
0:
08
07
06
15
0+
0)
0(
0'
1&
#970000
b100010 "
b1100001 !
b100011 "
1Q
1R
1N
0,
1S
1P
1:
19
1+
1*
#980000
b1100011 !
b100111 "
b1100010 !
b100110 "
0R
1L
0Q
1O
1,
0S
1M
0:
18
0+
1)
#990000
b101110 "
b101100 "
b101000 "
b1100011 !
b101001 "
1Q
1R
0N
0L
1I
0,
1S
0P
0M
1J
1:
09
08
17
1+
0*
0)
1(
