simulation/qsim/pfs_decod_3x8.msim.vcd
$comment
	File created using the following command:
		vcd file pfs_decod_3x8.msim.vcd -direction
$end
$date
	Fri Apr 17 09:38:43 2026
$end
$version
	ModelSim Version 10.1d
$end
$timescale
	1ps
$end
$scope module pfs_decod_3x8_vlg_vec_tst $end
$var reg 3 ! a [2:0] $end
$var wire 1 " out [7] $end
$var wire 1 # out [6] $end
$var wire 1 $ out [5] $end
$var wire 1 % out [4] $end
$var wire 1 & out [3] $end
$var wire 1 ' out [2] $end
$var wire 1 ( out [1] $end
$var wire 1 ) out [0] $end
$var wire 1 * sampler $end
$scope module i1 $end
$var wire 1 + gnd $end
$var wire 1 , vcc $end
$var wire 1 - unknown $end
$var tri1 1 . devclrn $end
$var tri1 1 / devpor $end
$var tri1 1 0 devoe $end
$var wire 1 1 out[7]~output_o $end
$var wire 1 2 out[6]~output_o $end
$var wire 1 3 out[5]~output_o $end
$var wire 1 4 out[4]~output_o $end
$var wire 1 5 out[3]~output_o $end
$var wire 1 6 out[2]~output_o $end
$var wire 1 7 out[1]~output_o $end
$var wire 1 8 out[0]~output_o $end
$var wire 1 9 a[0]~input_o $end
$var wire 1 : a[1]~input_o $end
$var wire 1 ; a[2]~input_o $end
$var wire 1 < inst~0_combout $end
$var wire 1 = inst~1_combout $end
$var wire 1 > inst~2_combout $end
$var wire 1 ? inst~3_combout $end
$var wire 1 @ inst~4_combout $end
$var wire 1 A inst~5_combout $end
$var wire 1 B inst~6_combout $end
$var wire 1 C inst~7_combout $end
$upscope $end
$upscope $end
$enddefinitions $end
#0
$dumpvars
b0 !
1)
0(
0'
0&
0%
0$
0#
0"
x*
0+
1,
x-
1.
1/
10
01
02
03
04
05
06
07
18
09
0:
0;
0<
0=
0>
0?
0@
0A
0B
1C
$end
#20000
b1 !
19
0*
0C
1B
08
17
0)
1(
#40000
b11 !
b10 !
09
1:
1*
0B
1A
07
16
0(
1'
#60000
b11 !
19
0*
0A
1@
06
15
0'
1&
#80000
b111 !
b101 !
b100 !
09
0:
1;
1*
0@
1?
05
14
0&
1%
#100000
b101 !
19
0*
0?
1>
04
13
0%
1$
#120000
b111 !
b110 !
09
1:
1*
0>
1=
03
12
0$
1#
#140000
b111 !
19
0*
0=
1<
02
11
0#
1"
#160000
b11 !
b1 !
b0 !
09
0:
0;
1*
1C
0<
18
01
1)
0"
#180000
b1 !
19
0*
0C
1B
08
17
0)
1(
#200000
b11 !
b10 !
09
1:
1*
0B
1A
07
16
0(
1'
#220000
b11 !
19
0*
0A
1@
06
15
0'
1&
#240000
b111 !
b101 !
b100 !
09
0:
1;
1*
0@
1?
05
14
0&
1%
#260000
b101 !
19
0*
0?
1>
04
13
0%
1$
#280000
b111 !
b110 !
09
1:
1*
0>
1=
03
12
0$
1#
#300000
b111 !
19
0*
0=
1<
02
11
0#
1"
#320000
b11 !
b1 !
b0 !
09
0:
0;
1*
1C
0<
18
01
1)
0"
#340000
b1 !
19
0*
0C
1B
08
17
0)
1(
#360000
b11 !
b10 !
09
1:
1*
0B
1A
07
16
0(
1'
#380000
b11 !
19
0*
0A
1@
06
15
0'
1&
#400000
b111 !
b101 !
b100 !
09
0:
1;
1*
0@
1?
05
14
0&
1%
#420000
b101 !
19
0*
0?
1>
04
13
0%
1$
#440000
b111 !
b110 !
09
1:
1*
0>
1=
03
12
0$
1#
#460000
b111 !
19
0*
0=
1<
02
11
0#
1"
#480000
b11 !
b1 !
b0 !
09
0:
0;
1*
1C
0<
18
01
1)
0"
#500000
b1 !
19
0*
0C
1B
08
17
0)
1(
#520000
b11 !
b10 !
09
1:
1*
0B
1A
07
16
0(
1'
#540000
b11 !
19
0*
0A
1@
06
15
0'
1&
#560000
b111 !
b101 !
b100 !
09
0:
1;
1*
0@
1?
05
14
0&
1%
#580000
b101 !
19
0*
0?
1>
04
13
0%
1$
#600000
b111 !
b110 !
09
1:
1*
0>
1=
03
12
0$
1#
#620000
b111 !
19
0*
0=
1<
02
11
0#
1"
#640000
b11 !
b1 !
b0 !
09
0:
0;
1*
1C
0<
18
01
1)
0"
#660000
b1 !
19
0*
0C
1B
08
17
0)
1(
#680000
b11 !
b10 !
09
1:
1*
0B
1A
07
16
0(
1'
#700000
b11 !
19
0*
0A
1@
06
15
0'
1&
#720000
b111 !
b101 !
b100 !
09
0:
1;
1*
0@
1?
05
14
0&
1%
#740000
b101 !
19
0*
0?
1>
04
13
0%
1$
#760000
b111 !
b110 !
09
1:
1*
0>
1=
03
12
0$
1#
#780000
b111 !
19
0*
0=
1<
02
11
0#
1"
#800000
b11 !
b1 !
b0 !
09
0:
0;
1*
1C
0<
18
01
1)
0"
#820000
b1 !
19
0*
0C
1B
08
17
0)
1(
#840000
b11 !
b10 !
09
1:
1*
0B
1A
07
16
0(
1'
#860000
b11 !
19
0*
0A
1@
06
15
0'
1&
#880000
b111 !
b101 !
b100 !
09
0:
1;
1*
0@
1?
05
14
0&
1%
#900000
b101 !
19
0*
0?
1>
04
13
0%
1$
#920000
b111 !
b110 !
09
1:
1*
0>
1=
03
12
0$
1#
#940000
b111 !
19
0*
0=
1<
02
11
0#
1"
#960000
b11 !
b1 !
b0 !
09
0:
0;
1*
1C
0<
18
01
1)
0"
#980000
b1 !
19
0*
0C
1B
08
17
0)
1(
