simulation/qsim/pfs_sum4.msim.vcd
$comment
	File created using the following command:
		vcd file pfs_sum4.msim.vcd -direction
$end
$date
	Fri Mar 13 20:46:04 2026
$end
$version
	ModelSim Version 10.1d
$end
$timescale
	1ps
$end
$scope module pfs_sum4_vlg_vec_tst $end
$var reg 1 ! cin $end
$var reg 1 " x0 $end
$var reg 1 # x1 $end
$var reg 1 $ x2 $end
$var reg 1 % x3 $end
$var reg 1 & y0 $end
$var reg 1 ' y1 $end
$var reg 1 ( y2 $end
$var reg 1 ) y3 $end
$var wire 1 * co $end
$var wire 1 + s0 $end
$var wire 1 , s1 $end
$var wire 1 - s2 $end
$var wire 1 . s3 $end
$var wire 1 / sampler $end
$scope module i1 $end
$var wire 1 0 gnd $end
$var wire 1 1 vcc $end
$var wire 1 2 unknown $end
$var tri1 1 3 devclrn $end
$var tri1 1 4 devpor $end
$var tri1 1 5 devoe $end
$var wire 1 6 s0~output_o $end
$var wire 1 7 s1~output_o $end
$var wire 1 8 s2~output_o $end
$var wire 1 9 s3~output_o $end
$var wire 1 : co~output_o $end
$var wire 1 ; y0~input_o $end
$var wire 1 < cin~input_o $end
$var wire 1 = x0~input_o $end
$var wire 1 > inst3|inst1~0_combout $end
$var wire 1 ? inst3|inst2|inst3~0_combout $end
$var wire 1 @ x1~input_o $end
$var wire 1 A y1~input_o $end
$var wire 1 B inst2|inst1~combout $end
$var wire 1 C inst2|inst2|inst3~0_combout $end
$var wire 1 D y2~input_o $end
$var wire 1 E x2~input_o $end
$var wire 1 F inst1|inst1~combout $end
$var wire 1 G y3~input_o $end
$var wire 1 H x3~input_o $end
$var wire 1 I inst1|inst2|inst3~0_combout $end
$var wire 1 J inst|inst1~combout $end
$var wire 1 K inst|inst2|inst3~0_combout $end
$upscope $end
$upscope $end
$enddefinitions $end
#0
$dumpvars
0!
0"
0#
0$
0%
0&
0'
0(
0)
0*
0+
0,
0-
0.
x/
00
11
x2
13
14
15
06
07
08
09
0:
0;
0<
0=
0>
0?
0@
0A
0B
0C
0D
0E
0F
0G
0H
0I
0J
0K
$end
#8000
1"
1=
0/
1>
16
1+
#16000
1#
0"
1@
0=
1/
1B
0>
17
06
1,
0+
#24000
1"
1=
0/
1>
16
1+
#32000
1$
0#
0"
1E
0@
0=
1/
1F
0B
0>
18
07
06
1-
0,
0+
#40000
1"
1=
0/
1>
16
1+
#48000
1#
0"
1@
0=
1/
1B
0>
17
06
1,
0+
#56000
1"
1=
0/
1>
16
1+
#64000
1%
0$
0#
0"
1H
0E
0@
0=
1/
1J
0F
0B
0>
19
08
07
06
1.
0-
0,
0+
#72000
1"
1=
0/
1>
16
1+
#80000
1#
0"
1@
0=
1/
1B
0>
17
06
1,
0+
#88000
1"
1=
0/
1>
16
1+
#96000
1$
0#
0"
1E
0@
0=
1/
1F
0B
0>
18
07
06
1-
0,
0+
#104000
1"
1=
0/
1>
16
1+
#112000
1#
0"
1@
0=
1/
1B
0>
17
06
1,
0+
#120000
1"
1=
0/
1>
16
1+
#128000
1&
0%
0$
0#
0"
1;
0H
0E
0@
0=
1/
0J
0F
0B
09
08
07
0.
0-
0,
#136000
1"
1=
0/
1?
0>
06
0+
1B
17
1,
#144000
1#
0"
1@
0=
1/
1C
0?
0B
1>
0C
07
16
0,
1+
1F
1B
18
17
1-
1,
0F
08
0-
#152000
1"
1=
0/
1?
0>
1C
06
0+
0B
07
0,
1F
18
1-
#160000
1$
0#
0"
1E
0@
0=
1/
1I
0C
0?
0F
1B
1>
0I
08
17
16
0-
1,
1+
1J
1F
0B
19
18
07
1.
1-
0,
0J
09
0.
#168000
1"
1=
0/
1?
0>
06
0+
1B
17
1,
#176000
1#
0"
1@
0=
1/
1C
0?
0B
1>
1I
0C
07
16
0,
1+
0F
1B
0I
08
17
0-
1,
1J
1F
19
18
1.
1-
0J
09
0.
#184000
1"
1=
0/
1?
0>
1C
06
0+
0B
1I
07
0,
0F
08
0-
1J
19
1.
#192000
1%
0$
0#
0"
1H
0E
0@
0=
1/
0I
0C
0?
1K
0J
1F
1B
1>
1:
09
18
17
16
1*
0.
1-
1,
1+
0K
1J
0F
0B
0:
19
08
07
0*
1.
0-
0,
#200000
1"
1=
0/
1?
0>
06
0+
1B
17
1,
#208000
1#
0"
1@
0=
1/
1C
0?
0B
1>
0C
07
16
0,
1+
1F
1B
18
17
1-
1,
0F
08
0-
#216000
1"
1=
0/
1?
0>
1C
06
0+
0B
07
0,
1F
18
1-
#224000
1$
0#
0"
1E
0@
0=
1/
1I
0C
0?
0F
1B
1>
0I
08
17
16
0-
1,
1+
1K
0J
1F
0B
1:
09
18
07
1*
0.
1-
0,
0K
1J
0:
19
0*
1.
#232000
1"
1=
0/
1?
0>
06
0+
1B
17
1,
#240000
1#
0"
1@
0=
1/
1C
0?
0B
1>
1I
0C
07
16
0,
1+
0F
1B
0I
08
17
0-
1,
1K
0J
1F
1:
09
18
1*
0.
1-
0K
1J
0:
19
0*
1.
#248000
1"
1=
0/
1?
0>
1C
06
0+
0B
1I
07
0,
0F
08
0-
1K
0J
1:
09
1*
0.
#256000
1'
0&
0%
0$
0#
0"
1A
0;
0H
0E
0@
0=
1/
0?
0I
0K
1J
1F
0C
0:
19
18
0*
1.
1-
1B
0J
17
09
1,
0.
0F
08
0-
#264000
1"
1=
0/
1>
16
1+
#272000
1#
0"
1@
0=
1/
1C
0B
0>
07
06
0,
0+
1F
18
1-
#280000
1"
1=
0/
1>
16
1+
#288000
1$
0#
0"
1E
0@
0=
1/
1I
0C
0F
1B
0>
0I
08
17
06
0-
1,
0+
1J
1F
19
18
1.
1-
0J
09
0.
#296000
1"
1=
0/
1>
16
1+
#304000
1#
0"
1@
0=
1/
1C
0B
0>
1I
07
06
0,
0+
0F
08
0-
1J
19
1.
#312000
1"
1=
0/
1>
16
1+
#320000
1%
0$
0#
0"
1H
0E
0@
0=
1/
0I
0C
1K
0J
1F
1B
0>
1:
09
18
17
06
1*
0.
1-
1,
0+
0K
1J
0F
0:
19
08
0*
1.
0-
#328000
1"
1=
0/
1>
16
1+
#336000
1#
0"
1@
0=
1/
1C
0B
0>
07
06
0,
0+
1F
18
1-
#344000
1"
1=
0/
1>
16
1+
#352000
1$
0#
0"
1E
0@
0=
1/
1I
0C
0F
1B
0>
0I
08
17
06
0-
1,
0+
1K
0J
1F
1:
09
18
1*
0.
1-
0K
1J
0:
19
0*
1.
#360000
1"
1=
0/
1>
16
1+
#368000
1#
0"
1@
0=
1/
1C
0B
0>
1I
07
06
0,
0+
0F
08
0-
1K
0J
1:
09
1*
0.
#376000
1"
1=
0/
1>
16
1+
#384000
1&
0%
0$
0#
0"
1;
0H
0E
0@
0=
1/
0I
0C
0K
1J
1F
1B
0:
19
18
17
0*
1.
1-
1,
0J
0F
09
08
0.
0-
#392000
1"
1=
0/
1?
0>
1C
06
0+
0B
07
0,
1F
18
1-
#400000
1#
0"
1@
0=
1/
0?
1B
1>
17
16
1,
1+
0B
07
0,
#408000
1"
1=
0/
1?
0>
06
0+
1B
17
1,
#416000
1$
0#
0"
1E
0@
0=
1/
1I
0?
0F
0B
1>
0C
08
07
16
0-
0,
1+
1J
1B
0I
19
17
1.
1,
1F
18
1-
0J
09
0.
#424000
1"
1=
0/
1?
0>
1C
06
0+
0B
1I
07
0,
0F
08
0-
1J
19
1.
#432000
1#
0"
1@
0=
1/
0?
1B
1>
17
16
1,
1+
0B
07
0,
#440000
1"
1=
0/
1?
0>
06
0+
1B
17
1,
#448000
1%
0$
0#
0"
1H
0E
0@
0=
1/
0I
0?
1K
0J
1F
0B
1>
0C
1:
09
18
07
16
1*
0.
1-
0,
1+
0K
1J
1B
0:
19
17
0*
1.
1,
0F
08
0-
#456000
1"
1=
0/
1?
0>
1C
06
0+
0B
07
0,
1F
18
1-
#464000
1#
0"
1@
0=
1/
0?
1B
1>
17
16
1,
1+
0B
07
0,
#472000
1"
1=
0/
1?
0>
06
0+
1B
17
1,
#480000
1$
0#
0"
1E
0@
0=
1/
1I
0?
0F
0B
1>
0C
08
07
16
0-
0,
1+
1K
0J
1B
0I
1:
09
17
1*
0.
1,
1F
18
1-
0K
1J
0:
19
0*
1.
#488000
1"
1=
0/
1?
0>
1C
06
0+
0B
1I
07
0,
0F
08
0-
1K
0J
1:
09
1*
0.
#496000
1#
0"
1@
0=
1/
0?
1B
1>
17
16
1,
1+
0B
07
0,
#504000
1"
1=
0/
1?
0>
06
0+
1B
17
1,
#512000
1(
0'
0&
0%
0$
0#
0"
1D
0A
0;
0H
0E
0@
0=
1/
0C
0?
0K
1J
0I
0:
19
0*
1.
1F
0B
18
07
1-
0,
0J
09
0.
#520000
1"
1=
0/
1>
16
1+
#528000
1#
0"
1@
0=
1/
1B
0>
17
06
1,
0+
#536000
1"
1=
0/
1>
16
1+
#544000
1$
0#
0"
1E
0@
0=
1/
1I
0F
0B
0>
08
07
06
0-
0,
0+
1J
19
1.
#552000
1"
1=
0/
1>
16
1+
#560000
1#
0"
1@
0=
1/
1B
0>
17
06
1,
0+
#568000
1"
1=
0/
1>
16
1+
#576000
1%
0$
0#
0"
1H
0E
0@
0=
1/
0I
1K
0J
1F
0B
0>
1:
09
18
07
06
1*
0.
1-
0,
0+
0K
1J
0:
19
0*
1.
#584000
1"
1=
0/
1>
16
1+
#592000
1#
0"
1@
0=
1/
1B
0>
17
06
1,
0+
#600000
1"
1=
0/
1>
16
1+
#608000
1$
0#
0"
1E
0@
0=
1/
1I
0F
0B
0>
08
07
06
0-
0,
0+
1K
0J
1:
09
1*
0.
#616000
1"
1=
0/
1>
16
1+
#624000
1#
0"
1@
0=
1/
1B
0>
17
06
1,
0+
#632000
1"
1=
0/
1>
16
1+
#640000
1&
0%
0$
0#
0"
1;
0H
0E
0@
0=
1/
0I
0K
1J
1F
0B
0:
19
18
07
0*
1.
1-
0,
0J
09
0.
#648000
1"
1=
0/
1?
0>
06
0+
1B
17
1,
#656000
1#
0"
1@
0=
1/
1C
0?
0B
1>
1I
0C
07
16
0,
1+
0F
1B
0I
08
17
0-
1,
1J
1F
19
18
1.
1-
0J
09
0.
#664000
1"
1=
0/
1?
0>
1C
06
0+
0B
1I
07
0,
0F
08
0-
1J
19
1.
#672000
1$
0#
0"
1E
0@
0=
1/
0C
0?
1F
1B
1>
18
17
16
1-
1,
1+
0F
0B
08
07
0-
0,
#680000
1"
1=
0/
1?
0>
06
0+
1B
17
1,
#688000
1#
0"
1@
0=
1/
1C
0?
0B
1>
0C
07
16
0,
1+
1F
1B
18
17
1-
1,
0F
08
0-
#696000
1"
1=
0/
1?
0>
1C
06
0+
0B
07
0,
1F
18
1-
#704000
1%
0$
0#
0"
1H
0E
0@
0=
1/
0C
0?
1K
0J
0F
1B
1>
0I
1:
09
08
17
16
1*
0.
0-
1,
1+
1F
0B
18
07
1-
0,
0K
1J
0:
19
0*
1.
#712000
1"
1=
0/
1?
0>
06
0+
1B
17
1,
#720000
1#
0"
1@
0=
1/
1C
0?
0B
1>
1I
0C
07
16
0,
1+
0F
1B
0I
08
17
0-
1,
1K
0J
1F
1:
09
18
1*
0.
1-
0K
1J
0:
19
0*
1.
#728000
1"
1=
0/
1?
0>
1C
06
0+
0B
1I
07
0,
0F
08
0-
1K
0J
1:
09
1*
0.
#736000
1$
0#
0"
1E
0@
0=
1/
0C
0?
1F
1B
1>
18
17
16
1-
1,
1+
0F
0B
08
07
0-
0,
#744000
1"
1=
0/
1?
0>
06
0+
1B
17
1,
#752000
1#
0"
1@
0=
1/
1C
0?
0B
1>
0C
07
16
0,
1+
1F
1B
18
17
1-
1,
0F
08
0-
#760000
1"
1=
0/
1?
0>
1C
06
0+
0B
07
0,
1F
18
1-
#768000
1'
0&
0%
0$
0#
0"
1A
0;
0H
0E
0@
0=
1/
0?
0K
1J
0F
0C
0:
19
08
0*
1.
0-
1B
0I
17
1,
1F
18
1-
0J
09
0.
#776000
1"
1=
0/
1>
16
1+
#784000
1#
0"
1@
0=
1/
1C
0B
0>
1I
07
06
0,
0+
0F
08
0-
1J
19
1.
#792000
1"
1=
0/
1>
16
1+
#800000
1$
0#
0"
1E
0@
0=
1/
0C
1F
1B
0>
18
17
06
1-
1,
0+
0F
08
0-
#808000
1"
1=
0/
1>
16
1+
#816000
1#
0"
1@
0=
1/
1C
0B
0>
07
06
0,
0+
1F
18
1-
#824000
1"
1=
0/
1>
16
1+
#832000
1%
0$
0#
0"
1H
0E
0@
0=
1/
0C
1K
0J
0F
1B
0>
0I
1:
09
08
17
06
1*
0.
0-
1,
0+
1F
18
1-
0K
1J
0:
19
0*
1.
#840000
1"
1=
0/
1>
16
1+
#848000
1#
0"
1@
0=
1/
1C
0B
0>
1I
07
06
0,
0+
0F
08
0-
1K
0J
1:
09
1*
0.
#856000
1"
1=
0/
1>
16
1+
#864000
1$
0#
0"
1E
0@
0=
1/
0C
1F
1B
0>
18
17
06
1-
1,
0+
0F
08
0-
#872000
1"
1=
0/
1>
16
1+
#880000
1#
0"
1@
0=
1/
1C
0B
0>
07
06
0,
0+
1F
18
1-
#888000
1"
1=
0/
1>
16
1+
#896000
1&
0%
0$
0#
0"
1;
0H
0E
0@
0=
1/
0C
0K
1J
0F
1B
0I
0:
19
08
17
0*
1.
0-
1,
1F
18
1-
0J
09
0.
#904000
1"
1=
0/
1?
0>
1C
06
0+
0B
1I
07
0,
0F
08
0-
1J
19
1.
#912000
1#
0"
1@
0=
1/
0?
1B
1>
17
16
1,
1+
0B
07
0,
#920000
1"
1=
0/
1?
0>
06
0+
1B
17
1,
#928000
1$
0#
0"
1E
0@
0=
1/
0?
1F
0B
1>
0C
18
07
16
1-
0,
1+
1B
17
1,
0F
08
0-
#936000
1"
1=
0/
1?
0>
1C
06
0+
0B
07
0,
1F
18
1-
#944000
1#
0"
1@
0=
1/
0?
1B
1>
17
16
1,
1+
0B
07
0,
#952000
1"
1=
0/
1?
0>
06
0+
1B
17
1,
#960000
1%
0$
0#
0"
1H
0E
0@
0=
1/
0?
1K
0J
0F
0B
1>
0C
1:
09
08
07
16
1*
0.
0-
0,
1+
1B
0I
17
1,
1F
18
1-
0K
1J
0:
19
0*
1.
#968000
1"
1=
0/
1?
0>
1C
06
0+
0B
1I
07
0,
0F
08
0-
1K
0J
1:
09
1*
0.
#976000
1#
0"
1@
0=
1/
0?
1B
1>
17
16
1,
1+
0B
07
0,
#984000
1"
1=
0/
1?
0>
06
0+
1B
17
1,
#992000
1$
0#
0"
1E
0@
0=
1/
0?
1F
0B
1>
0C
18
07
16
1-
0,
1+
1B
17
1,
0F
08
0-
