simulation/qsim/pfs_ula_4bits.msim.vcd
$comment
	File created using the following command:
		vcd file pfs_ula_4bits.msim.vcd -direction
$end
$date
	Fri Apr 17 10:08:04 2026
$end
$version
	ModelSim Version 10.1d
$end
$timescale
	1ps
$end
$scope module pfs_ula_4bits_vlg_vec_tst $end
$var reg 3 ! sel [2:0] $end
$var reg 4 " x [3:0] $end
$var reg 4 # y [3:0] $end
$var wire 1 $ cout $end
$var wire 1 % debug $end
$var wire 1 & s [3] $end
$var wire 1 ' s [2] $end
$var wire 1 ( s [1] $end
$var wire 1 ) s [0] $end
$var wire 1 * sampler $end
$scope module i1 $end
$var wire 1 + gnd $end
$var wire 1 , vcc $end
$var wire 1 - unknown $end
$var tri1 1 . devclrn $end
$var tri1 1 / devpor $end
$var tri1 1 0 devoe $end
$var wire 1 1 cout~output_o $end
$var wire 1 2 debug~output_o $end
$var wire 1 3 s[3]~output_o $end
$var wire 1 4 s[2]~output_o $end
$var wire 1 5 s[1]~output_o $end
$var wire 1 6 s[0]~output_o $end
$var wire 1 7 sel[0]~input_o $end
$var wire 1 8 sel[2]~input_o $end
$var wire 1 9 sel[1]~input_o $end
$var wire 1 : x[3]~input_o $end
$var wire 1 ; inst16~0_combout $end
$var wire 1 < x[2]~input_o $end
$var wire 1 = inst14~0_combout $end
$var wire 1 > y[1]~input_o $end
$var wire 1 ? x[1]~input_o $end
$var wire 1 @ inst3|inst8~0_combout $end
$var wire 1 A y[0]~input_o $end
$var wire 1 B inst4|inst8~1_combout $end
$var wire 1 C inst4|inst8~0_combout $end
$var wire 1 D inst5~0_combout $end
$var wire 1 E x[0]~input_o $end
$var wire 1 F inst9~0_combout $end
$var wire 1 G inst4|inst8~2_combout $end
$var wire 1 H inst3|inst8~1_combout $end
$var wire 1 I inst1|inst~0_combout $end
$var wire 1 J inst13~0_combout $end
$var wire 1 K inst3|inst7|inst2|inst3~0_combout $end
$var wire 1 L inst|inst|inst3|inst~1_combout $end
$var wire 1 M inst|inst|inst3|inst~0_combout $end
$var wire 1 N inst3|inst8~2_combout $end
$var wire 1 O inst3|inst8~3_combout $end
$var wire 1 P y[2]~input_o $end
$var wire 1 Q inst7|inst7|inst2|inst3~0_combout $end
$var wire 1 R inst7|inst8~0_combout $end
$var wire 1 S inst7|inst8~1_combout $end
$var wire 1 T inst7|inst8~2_combout $end
$var wire 1 U y[3]~input_o $end
$var wire 1 V inst|inst8~0_combout $end
$var wire 1 W inst|inst8~1_combout $end
$var wire 1 X inst|inst8~2_combout $end
$var wire 1 Y inst4|inst8~3_combout $end
$var wire 1 Z inst|inst|inst3|inst~6_combout $end
$var wire 1 [ inst|inst|inst|inst4|inst~0_combout $end
$var wire 1 \ inst|inst|inst3|inst~4_combout $end
$var wire 1 ] inst|inst|inst3|inst~3_combout $end
$var wire 1 ^ inst|inst|inst3|inst~5_combout $end
$var wire 1 _ inst|inst9|inst1~0_combout $end
$var wire 1 ` inst|inst|inst3|inst~2_combout $end
$var wire 1 a inst|inst|inst3|inst~7_combout $end
$var wire 1 b inst7|inst|inst3|inst~0_combout $end
$var wire 1 c inst7|inst|inst|inst4|inst~0_combout $end
$var wire 1 d inst7|inst|inst3|inst~1_combout $end
$var wire 1 e inst7|inst7|inst1~combout $end
$var wire 1 f inst7|inst|inst3|inst~2_combout $end
$var wire 1 g inst7|inst|inst3|inst~3_combout $end
$var wire 1 h inst7|inst|inst3|inst~4_combout $end
$var wire 1 i inst3|inst|inst3|inst~2_combout $end
$var wire 1 j inst3|inst|inst3|inst~1_combout $end
$var wire 1 k inst3|inst|inst3|inst~0_combout $end
$var wire 1 l inst3|inst|inst3|inst~3_combout $end
$var wire 1 m inst3|inst|inst3|inst~4_combout $end
$var wire 1 n inst4|inst|inst3|inst~1_combout $end
$var wire 1 o inst4|inst|inst3|inst~0_combout $end
$var wire 1 p inst4|inst|inst3|inst~2_combout $end
$upscope $end
$upscope $end
$enddefinitions $end
#0
$dumpvars
b0 !
b0 "
b0 #
0$
0%
0)
0(
0'
0&
x*
0+
1,
x-
1.
1/
10
01
02
03
04
05
06
07
08
09
0:
0;
0<
0=
0>
0?
0@
0A
0B
0C
0D
0E
0F
0G
0H
1I
0J
0K
0L
0M
0N
0O
0P
0Q
0R
0S
0T
0U
0V
0W
0X
0Y
0Z
0[
0\
0]
0^
0_
0`
0a
0b
0c
0d
0e
0f
0g
0h
0i
0j
0k
0l
0m
0n
0o
0p
$end
#10000
b1 "
1E
0*
#20000
b11 "
b10 "
0E
1?
1*
1k
1D
1o
1p
16
1)
#30000
b11 "
1E
0*
#40000
b111 "
b101 "
b100 "
0E
0?
1<
1*
0k
1J
0D
1l
0o
1m
0p
15
06
1(
0)
#50000
b1 !
b101 "
1E
17
0*
1F
1n
1j
1b
1\
1V
0I
1C
1@
1=
1o
1G
1d
1^
0J
1e
1c
0b
1p
0m
0l
0d
16
05
1)
0(
0p
1h
1a
06
14
13
0)
1'
1&
1m
0h
15
04
1(
0'
#60000
b1 #
b111 "
b110 "
0E
1?
1A
1*
0F
1k
1J
0C
0o
0G
1l
1p
0m
16
05
1)
0(
#70000
b111 "
1E
0*
1F
1o
0p
06
0)
#80000
b1111 "
b1011 "
b1001 "
b1000 "
0E
0?
0<
1:
1*
0F
0k
0J
0=
1_
0\
1[
1W
0o
0l
0e
0c
1b
0^
1d
1p
1m
0a
16
15
03
1)
1(
0&
1h
14
1'
#90000
b1001 "
1E
0*
1F
1o
0p
06
0)
#100000
b11 !
b10 !
b1011 "
b1010 "
0E
1?
07
19
1*
0F
1k
1J
0@
0n
0j
0b
1\
0[
0V
1p
0m
0o
1l
0d
1^
0\
0W
16
05
1)
0(
0^
0p
0h
1a
06
04
13
0)
0'
1&
0a
03
0&
#110000
b1011 "
1E
0*
1F
1o
1p
16
1)
#120000
b11 #
b10 #
b1111 "
b1101 "
b1100 "
0E
0?
1<
0A
1>
1*
0F
0k
0J
1@
1=
1j
1K
0p
0o
0l
0K
1e
06
0)
1m
15
1(
0m
05
0(
#130000
b1101 "
1E
0*
1F
1o
#140000
b1111 "
b1110 "
0E
1?
1*
0F
1k
1J
0@
0o
1l
1K
1m
15
1(
#150000
b11 !
b1111 "
1E
17
0*
1F
1n
0j
1i
1c
1[
1V
1o
1d
1\
1W
1^
1p
1h
16
14
1)
1'
1a
13
1&
#160000
b111 "
b11 "
b1 "
b0 "
0E
0?
0<
0:
1*
0F
0k
0J
1@
0=
0_
0[
0W
0o
0K
0e
0c
0\
0d
0^
0p
06
0)
0h
0a
04
03
0'
0&
#170000
b1 "
1E
0*
1F
1o
1p
16
1)
#180000
b11 #
b11 "
b10 "
0E
1?
1A
1*
0F
1k
1J
0@
0o
1K
#190000
b11 "
1E
0*
1F
1o
#200000
b111 !
b101 !
b100 !
b111 "
b101 "
b100 "
0E
0?
1<
07
09
18
1*
0o
0F
0k
0J
1=
1j
0V
1L
1C
0l
0p
0K
1e
1b
1O
06
0)
1p
0O
1g
0e
1Q
16
1)
1e
0Q
0g
1T
1h
1g
0T
1_
14
1'
0h
0_
1`
04
0'
1h
0`
14
1'
1a
13
1&
0a
03
0&
#210000
b101 "
1E
0*
1o
1F
1G
0p
1k
1K
06
0)
1Y
1l
1O
12
1%
0e
1Q
0m
0g
1T
05
0(
1_
0h
1`
04
0'
1a
13
1&
#220000
b111 "
b110 "
0E
1?
1*
0o
0F
1J
0G
0l
1p
0k
16
1)
0Y
1m
1l
02
15
0%
1(
0m
05
0(
#230000
b111 "
1E
0*
1o
1F
1G
0p
1k
06
0)
1Y
0l
12
1%
1m
15
1(
#240000
b111 #
b101 #
b1111 "
b100 #
b1011 "
b1001 "
b1000 "
0E
0?
0<
1:
0A
0>
1P
1*
0o
0F
0J
0=
0_
1W
0n
0C
0j
1e
1c
0G
1l
0K
0e
0c
0b
0`
1g
1X
0m
0k
0O
0g
11
05
1$
0(
0Y
1m
0a
1h
0l
1e
0Q
02
15
03
14
0%
1(
0&
1'
0h
1g
0T
04
0'
0m
1_
0W
05
0(
1h
1`
14
1'
0X
01
0$
1a
13
1&
#250000
b101 !
b1001 "
1E
17
0*
1o
1F
1j
1c
1b
1[
1V
1M
0L
1C
1B
1@
1G
1W
0g
0`
1p
1m
1k
1H
16
15
1)
1(
1Y
1X
0h
0a
1l
1O
12
11
04
03
1%
1$
0'
0&
0e
1Q
0m
1g
05
0(
1h
14
1'
#260000
b1011 "
b1010 "
0E
1?
1*
0o
0F
1N
1J
0l
1K
0p
06
0)
1m
15
1(
#270000
b1011 "
1E
0*
1o
1F
1p
16
1)
#280000
b1111 "
b1101 "
b1100 "
0E
0?
1<
1*
0o
0F
0N
0J
1R
1=
1l
0K
1T
1e
0b
0p
0_
0g
06
0)
0m
1`
05
0(
0h
04
0'
1a
13
1&
#290000
b1101 "
1E
0*
1o
1F
1p
16
1)
#300000
b111 !
b101 #
b110 !
b1111 "
b1110 "
0E
1?
1A
07
19
1*
0o
0F
1N
1J
0@
0C
1\
0[
1Z
0V
0M
0l
1m
0X
1l
1K
0H
0\
1f
0`
0R
0N
15
01
1(
0$
0p
0m
0O
1g
0T
06
05
0)
0(
1m
0f
0e
1_
0W
15
1(
1h
0g
14
1'
0a
03
0&
0h
04
0'
#310000
b1111 "
1E
0*
1o
1F
0G
1p
0k
0K
16
1)
0Y
0l
02
0%
0m
05
0(
#320000
b111 "
b11 "
b1 "
b0 "
0E
0?
0<
0:
1*
0o
0F
0J
1@
0=
0_
1G
1l
1f
1e
0c
0Q
0p
1a
1k
1H
1g
06
13
0)
1&
1Y
1m
0l
1O
12
15
1%
1(
1h
0f
0e
1S
1Q
14
1'
0m
0g
1T
05
0(
1_
0h
1X
04
11
0'
1$
0a
03
0&
#330000
b1 "
1E
0*
1o
1F
0G
1p
0k
0H
16
1)
0Y
1l
0O
02
0%
1f
1e
0S
0Q
1m
1g
0T
15
1(
0_
1h
0X
14
01
1'
0$
1a
13
1&
#340000
b11 "
b10 "
0E
1?
1*
0o
0F
1J
0@
1G
0l
0p
1k
1K
06
0)
1Y
0m
1l
12
05
1%
0(
1m
15
1(
#350000
b111 !
b11 "
1E
17
0*
1o
1F
1n
0j
0i
1c
1]
0Z
1V
0B
0G
0f
1p
0m
0a
0k
0K
0g
16
05
03
1)
0(
0&
0Y
0l
02
0%
#360000
b111 #
b110 #
b111 "
b101 "
b100 "
0E
0?
1<
0A
1>
1*
0o
0F
0J
1@
1=
0n
1i
1K
1l
0K
0e
1Q
0p
1m
06
15
0)
1(
#370000
b101 "
1E
0*
1o
1F
#380000
b111 "
b110 "
0E
1?
1*
0o
0F
1J
0@
0l
1K
#390000
b111 "
1E
0*
1o
1F
#400000
b11 !
b1 !
b1111 "
b0 !
b1011 "
b1001 "
b1000 "
0E
0?
0<
1:
07
09
08
1*
0F
0J
0=
1_
1W
1;
0i
1b
0]
0V
1I
1l
1p
0m
0o
0l
0K
1d
0W
0_
16
05
1)
0(
1m
0h
15
04
1(
0'
0p
0m
1h
06
05
14
0)
0(
1'
#410000
b1001 "
1E
0*
#420000
b111 #
b1011 "
b1010 "
0E
1?
1A
1*
1k
1D
1C
1o
1G
1p
16
1)
#430000
b1011 "
1E
0*
#440000
b1111 "
b1101 "
b1100 "
0E
0?
1<
1*
0k
1J
0D
1l
1K
0o
0G
1m
0p
15
06
1(
0)
#450000
b1 !
b1101 "
1E
17
0*
1F
1n
1j
0b
1V
0I
0C
1=
0;
1o
0d
1W
1_
1[
0J
1p
0m
0l
0K
16
05
1)
0(
0p
0h
06
04
0)
0'
1m
15
1(
#460000
b1111 "
b1110 "
0E
1?
1*
0F
1k
1J
1@
0o
1l
1K
1p
0m
16
05
1)
0(
#470000
b1111 "
1E
0*
1F
1o
0p
06
0)
#480000
b1111 #
b1011 #
b1001 #
b111 "
b1000 #
b11 "
b1 "
b0 "
0E
0?
0<
0:
0A
0>
0P
1U
1*
0F
0k
0J
0=
0_
1\
0W
1C
0K
1e
0Q
0V
0o
0l
0e
0c
1b
1^
1d
1p
1m
1a
16
15
13
1)
1(
1&
1h
14
1'
#490000
b1 "
1E
0*
1F
1o
1G
0p
06
0)
#500000
b11 !
b10 !
b11 "
b10 "
0E
1?
07
19
1*
0F
1k
1J
0@
0n
0j
0b
0[
0C
1p
0m
0o
0G
1l
0d
0\
16
05
1)
0(
0p
0^
06
0)
0h
04
0'
0a
03
0&
#510000
b11 "
1E
0*
1F
1o
#520000
b111 "
b101 "
b100 "
0E
0?
1<
1*
0F
0k
0J
1@
1=
0o
0l
1e
#530000
b101 "
1E
0*
1F
1o
#540000
b1001 #
b111 "
b110 "
0E
1?
1A
1*
0F
1k
1J
0@
1p
0o
1l
16
1)
0p
06
0)
#550000
b11 !
b111 "
1E
17
0*
1F
1n
1j
1c
1[
1V
1o
1d
1\
1p
1m
1^
16
15
1)
1(
1h
14
1'
1a
13
1&
#560000
b1111 "
b1011 "
b1001 "
b1000 "
0E
0?
0<
1:
1*
0F
0k
0J
1@
0=
1_
1W
0o
0l
0e
0c
0d
0m
05
0(
0h
04
0'
#570000
b1001 "
1E
0*
1F
1o
#580000
b1011 "
b1010 "
0E
1?
1*
0F
1k
1J
0@
0o
1l
1m
15
1(
#590000
b1011 "
1E
0*
1F
1o
#600000
b111 !
b1011 #
b101 !
b1010 #
b100 !
b1111 "
b1101 "
b1100 "
0E
0?
1<
0A
1>
07
09
18
1*
0o
0F
0k
0J
1=
0n
1i
1K
0\
1L
0^
0p
0m
1X
0l
0K
1e
1b
1O
06
05
11
0)
0(
1$
0a
0O
1g
0e
1Q
03
0&
1m
1e
0Q
0g
1T
15
1(
1h
1g
0T
0_
14
1'
0h
1_
1`
04
0'
1h
0`
14
1'
1a
13
1&
0a
03
0&
#610000
b1101 "
1E
0*
1o
1F
1p
16
1)
#620000
b1111 "
b1110 "
0E
1?
1*
0o
0F
1J
1l
1K
0p
1O
06
0)
0m
0e
1Q
05
0(
0g
1T
0_
0h
1`
04
0'
1a
13
1&
#630000
b1111 "
1E
0*
1o
1F
1p
16
1)
#640000
b111 "
b11 "
b1 "
b0 "
0E
0?
0<
0:
1*
0o
0F
0J
0=
1_
0[
0l
0K
1e
0b
0Q
0`
0p
0O
1g
0T
06
0)
1m
0a
0e
0_
0W
15
03
1(
0&
1h
0g
1`
14
1'
0X
01
0$
0h
1a
04
13
0'
1&
#650000
b101 !
b1 "
1E
17
0*
1o
1F
0j
1b
1\
1[
0V
1M
0L
1C
1B
1G
1g
0`
1p
0m
1k
1K
16
05
1)
0(
1Y
1h
0a
1l
12
14
03
1%
1'
0&
1m
15
1(
#660000
b1011 #
b11 "
b10 "
0E
1?
1A
1*
0o
0F
1J
1@
1n
0B
0G
0l
1H
0k
0H
1O
0Y
0m
1l
0O
1e
1R
02
05
0%
0(
0e
0R
0g
1T
1m
1g
0T
1_
15
1(
0h
0_
1`
04
0'
1h
0`
14
1'
1a
13
1&
0a
03
0&
#670000
b11 "
1E
0*
1o
1F
1G
0p
1k
1H
06
0)
1Y
0l
1O
12
1%
1e
1R
0m
0g
1T
05
0(
1_
0h
1`
04
0'
1a
13
1&
#680000
b111 "
b101 "
b100 "
0E
0?
1<
1*
0o
0F
0J
0@
1=
0G
1l
0H
0e
1c
0b
1Q
1p
0k
0K
0O
1g
16
1)
0Y
1m
0l
1e
0Q
02
15
0%
1(
1h
0g
14
1'
0m
05
0(
0h
04
0'
#690000
b101 "
1E
0*
1o
1F
1G
0p
1k
1K
06
0)
1Y
1l
12
1%
1m
15
1(
#700000
b111 !
b110 !
b111 "
b110 "
0E
1?
07
19
1*
0o
0F
1J
0n
1j
0c
0[
1Z
0M
0C
1B
0l
1p
1X
1l
0\
0`
0R
16
11
1)
1$
0p
0m
0T
06
05
0)
0(
1m
0a
0_
15
03
1(
0&
0X
01
0$
1a
13
1&
#710000
b111 "
1E
0*
1o
1F
0G
1p
0k
16
1)
0Y
0l
02
0%
0m
05
0(
#720000
b1111 #
b1101 #
b1111 "
b1100 #
b1011 "
b1001 "
b1000 "
0E
0?
0<
1:
0A
0>
1P
1*
0o
0F
0J
1@
0=
1_
1[
1n
0K
0e
1c
1Q
0p
1G
1l
1f
1e
0c
0Q
1\
06
0)
0a
1k
1H
1g
03
0&
1Y
1m
0l
1O
12
15
1%
1(
1h
0f
0e
1S
1Q
14
1'
0m
0g
1T
05
0(
0_
1W
0h
1X
04
11
0'
1$
1a
0X
13
01
1&
0$
#730000
b1001 "
1E
0*
1o
1F
0G
1p
0k
0H
16
1)
0Y
1l
0O
02
0%
1f
1e
0S
0Q
1m
1g
0T
15
1(
1_
0W
1h
14
1'
0a
03
0&
#740000
b1011 "
b1010 "
0E
1?
1*
0o
0F
1J
0@
1G
0l
0p
1k
1K
06
0)
1Y
0m
1l
12
05
1%
0(
1m
15
1(
#750000
b111 !
b1011 "
1E
17
0*
1o
1F
0n
0j
0i
1c
1]
0Z
1V
0B
0G
1^
0f
1W
0m
0k
0K
0g
05
0(
0Y
1a
0l
02
13
0%
1&
#760000
b1111 "
b1101 "
b1100 "
0E
0?
1<
1*
0o
0F
0J
1@
1=
0e
1Q
#770000
b1101 "
1E
0*
1o
1F
#780000
b1101 #
b1111 "
b1110 "
0E
1?
1A
1*
0o
0F
1J
0@
1n
1p
16
1)
#790000
b1111 "
1E
0*
1o
1F
#800000
b11 !
b1 !
b111 "
b0 !
b11 "
b1 "
b0 "
0E
0?
0<
0:
07
09
08
1*
0F
0J
0=
0_
0\
0[
0W
0n
1b
0]
1I
1C
1l
0p
0o
0l
1e
0c
0b
0Q
0^
1d
06
0)
1p
0h
1m
0d
16
04
15
1)
0'
1(
0p
0m
0a
1h
06
05
03
14
0)
0(
0&
1'
0h
04
0'
#810000
b1 "
1E
0*
#820000
b11 "
b10 "
0E
1?
1*
1k
1D
1o
1G
1p
16
1)
#830000
b11 "
1E
0*
#840000
b1111 #
b1110 #
b111 "
b101 "
b100 "
0E
0?
1<
0A
1>
1*
0k
1J
0D
0C
1l
1K
0o
0G
1m
0p
15
06
1(
0)
#850000
b1 !
b101 "
1E
17
0*
1F
1n
1j
1c
1b
1\
1[
0V
0I
1C
1=
1o
1G
1d
1^
0J
0e
0b
1Q
1p
0m
0K
0l
0d
16
05
1)
0(
0p
1h
1a
06
14
13
0)
1'
1&
1m
0h
15
04
1(
0'
#860000
b111 "
b110 "
0E
1?
1*
0F
1k
1J
1@
0o
0G
1l
1K
1p
0m
16
05
1)
0(
#870000
b111 "
1E
0*
1F
1o
1G
0p
06
0)
#880000
b1111 "
b1011 "
b1001 "
b1000 "
0E
0?
0<
1:
1*
0F
0k
0J
0@
0=
1_
0\
0o
0G
0l
0K
1e
1b
0Q
0^
1d
1p
1m
0a
16
15
03
1)
1(
0&
1h
14
1'
#890000
b1001 "
1E
0*
1F
1o
1G
0p
06
0)
#900000
b11 !
b1111 #
b10 !
b1011 "
b1010 "
0E
1?
1A
07
19
1*
0F
1k
1J
0n
0C
0c
0b
1\
1p
0m
0o
0G
1l
1K
0d
1^
16
05
1)
0(
0p
1m
0h
1a
06
15
04
13
0)
1(
0'
1&
#910000
b1011 "
1E
0*
1F
1o
1p
16
1)
#920000
b1111 "
b1101 "
b1100 "
0E
0?
1<
1*
0F
0k
0J
1@
1=
0o
0l
0K
0e
1c
1Q
1d
0p
0m
06
05
0)
0(
1h
14
1'
#930000
b1101 "
1E
0*
1F
1o
1p
16
1)
#940000
b1111 "
b1110 "
0E
1?
1*
0F
1k
1J
0@
0o
1l
1K
0p
1m
06
15
0)
1(
#950000
b11 !
b1111 "
1E
17
0*
1F
1n
0j
1i
1V
1o
1W
1p
16
1)
#960000
b111 #
b11 #
b1 #
b111 "
b0 #
b11 "
b1 "
b0 "
0E
0?
0<
0:
0A
0>
0P
0U
1*
0F
0k
0J
1@
0=
0_
0[
0W
1j
0i
0K
1e
0Q
0o
0l
0e
0c
0\
0d
0^
0p
0m
06
05
0)
0(
0h
0a
04
03
0'
0&
#970000
b1 "
1E
0*
1F
1o
1p
16
1)
#980000
b11 "
b10 "
0E
1?
1*
0F
1k
1J
0@
0o
1l
0p
1m
06
15
0)
1(
#990000
b11 "
1E
0*
1F
1o
1p
16
1)
